<?xml version="1.0" encoding="UTF-8" standalone="no"?>
<!-- Created with Inkscape (http://www.inkscape.org/) -->

<svg
   width="190mm"
   height="23.431mm"
   viewBox="0 0 190.00001 23.431"
   version="1.1"
   id="svg31878"
   xml:space="preserve"
   sodipodi:docname="nuty-ktorys-za-nas.svg"
   inkscape:version="1.2.1 (9c6d41e4, 2022-07-14)"
   xmlns:inkscape="http://www.inkscape.org/namespaces/inkscape"
   xmlns:sodipodi="http://sodipodi.sourceforge.net/DTD/sodipodi-0.dtd"
   xmlns:xlink="http://www.w3.org/1999/xlink"
   xmlns="http://www.w3.org/2000/svg"
   xmlns:svg="http://www.w3.org/2000/svg"><sodipodi:namedview
     id="namedview31880"
     pagecolor="#ffffff"
     bordercolor="#666666"
     borderopacity="1.0"
     inkscape:showpageshadow="2"
     inkscape:pageopacity="0.0"
     inkscape:pagecheckerboard="0"
     inkscape:deskcolor="#d1d1d1"
     inkscape:document-units="mm"
     showgrid="false"
     inkscape:zoom="0.84541947"
     inkscape:cx="11.828448"
     inkscape:cy="216.46059"
     inkscape:window-width="1478"
     inkscape:window-height="1046"
     inkscape:window-x="0"
     inkscape:window-y="25"
     inkscape:window-maximized="0"
     inkscape:current-layer="layer1" /><defs
     id="defs31875"><g
       id="g32069"><g
         id="glyph-0-0"><path
           d="M 1.140625,0 H 10.3125 V -12.21875 H 1.140625 Z m 1.15625,-1.140625 v -9.9375 h 6.875 v 9.9375 z m 0,0"
           id="path31882" /></g><g
         id="glyph-0-1"><path
           d="M 5.046875,-3.09375 C 2.609375,-3.09375 0,-0.9375 0,1.09375 c 0,1.953125 2.171875,2 2.4375,2 2.421875,0 5.03125,-2.15625 5.03125,-4.1875 0,-1.953125 -2.171875,-2 -2.421875,-2 z m 0,0"
           id="path31885" /></g><g
         id="glyph-0-2"><path
           d="M 6.125,13.59375 H 6.03125 c -1.15625,0 -2.140625,-0.640625 -2.734375,-1.5625 0.25,0.125 0.53125,0.1875 0.78125,0.1875 1.1875,0 2.171875,-0.984375 2.171875,-2.171875 C 6.25,8.75 5.3125,7.65625 4.078125,7.65625 c -1.34375,0 -2.59375,1.046875 -2.59375,2.390625 0,2.46875 2.015625,4.484375 4.5,4.484375 H 6.09375 Z M 14.765625,-0.046875 C 14.765625,-3.078125 12.46875,-6 8.921875,-6 8.75,-6 8.640625,-5.984375 8.59375,-5.984375 8.203125,-7.59375 7.796875,-9.171875 7.328125,-10.75 c 2.1875,-2.5 4.15625,-5.0625 4.15625,-8.34375 0,-2.59375 -1.484375,-6.34375 -3.03125,-8.203125 -0.109375,-0.09375 -0.296875,-0.125 -0.40625,-0.03125 -2.15625,1.5625 -3.4375,4.078125 -3.4375,6.75 0,4.03125 0.5,5.71875 1.140625,7.90625 -2.671875,3.0625 -5.703125,6.046875 -5.703125,10.109375 0,4.4375 3.203125,8.546875 7.625,8.546875 1.03125,0 1.9375,-0.15625 2.046875,-0.1875 0.0625,0.71875 0.09375,1.453125 0.09375,2.15625 0,5.0625 -2.703125,5.609375 -3.6875,5.640625 l -0.03125,0.9375 c 2.609375,-0.0625 4.453125,-2.46875 4.609375,-5.203125 0.03125,-0.4375 0.04687,-0.875 0.04687,-1.3125 0,-0.8125 -0.04687,-1.640625 -0.109375,-2.453125 2.453125,-0.75 4.125,-3.046875 4.125,-5.609375 z m -4.21875,4.71875 C 10.25,2.125 9.578125,-1.46875 9.140625,-3.5 11.625,-3.28125 13.1875,-1.1875 13.1875,0.890625 c 0,1.703125 -1.03125,3.234375 -2.640625,3.78125 z m -8.875,-5.359375 c 0,-3.671875 2.453125,-6.4375 4.90625,-9.21875 0.359375,1.328125 0.734375,2.703125 1.0625,4.0625 -2.328125,0.53125 -3.65625,2.46875 -3.65625,4.484375 0,2.875 2.53125,4.265625 2.875,4.265625 0.265625,0 0.46875,-0.21875 0.46875,-0.46875 0,-0.125 -0.015625,-0.265625 -0.125,-0.359375 C 5.90625,1.359375 5.3125,0.28125 5.3125,-0.734375 c 0,-1.328125 1.03125,-2.546875 2.84375,-2.75 C 8.96875,0.28125 9.46875,3.46875 9.625,4.90625 8.828125,5.046875 7.765625,5.046875 7.75,5.046875 4.90625,5.046875 1.671875,2.65625 1.671875,-0.6875 Z M 9.875,-20.96875 c 0,2.890625 -1.53125,5.21875 -3.390625,7.4375 C 5.953125,-15.3125 5.6875,-16.75 5.6875,-18.046875 5.6875,-20.5625 7.125,-22.875 9.390625,-24 9.875,-22.484375 9.875,-21.75 9.875,-20.96875 Z m 0,0"
           id="path31888" /></g><g
         id="glyph-0-3"><path
           d="m 0,-2.75 v 1.4375 c 0,0.234375 0.203125,0.421875 0.40625,0.421875 0.046875,0 0.09375,0 0.140625,-0.03125 l 0.8125,-0.296875 V 2.5 L 0.28125,2.890625 C 0.109375,2.953125 0,3.09375 0,3.28125 v 1.421875 c 0,0.21875 0.203125,0.40625 0.40625,0.40625 0.046875,0 0.09375,0 0.140625,-0.015625 l 0.8125,-0.296875 V 8.1875 c 0,0.21875 0.171875,0.40625 0.40625,0.40625 0.234375,0 0.40625,-0.1875 0.40625,-0.40625 V 4.515625 L 4.125,3.8125 v 3.390625 c 0,0.21875 0.1875,0.40625 0.40625,0.40625 0.234375,0 0.421875,-0.1875 0.421875,-0.40625 V 3.53125 L 6.03125,3.140625 C 6.1875,3.078125 6.296875,2.9375 6.296875,2.75 V 1.3125 c 0,-0.234375 -0.203125,-0.421875 -0.40625,-0.421875 -0.046875,0 -0.09375,0 -0.140625,0.03125 L 4.953125,1.21875 V -2.5 L 6.03125,-2.890625 C 6.1875,-2.953125 6.296875,-3.09375 6.296875,-3.28125 v -1.421875 c 0,-0.21875 -0.203125,-0.40625 -0.40625,-0.40625 -0.046875,0 -0.09375,0 -0.140625,0.015625 L 4.953125,-4.796875 V -8.1875 c 0,-0.21875 -0.1875,-0.40625 -0.421875,-0.40625 -0.21875,0 -0.40625,0.1875 -0.40625,0.40625 v 3.671875 L 2.171875,-3.8125 v -3.390625 c 0,-0.21875 -0.171875,-0.40625 -0.40625,-0.40625 -0.234375,0 -0.40625,0.1875 -0.40625,0.40625 V -3.53125 L 0.28125,-3.140625 C 0.109375,-3.078125 0,-2.9375 0,-2.75 Z m 4.125,0.546875 v 3.71875 l -1.953125,0.6875 v -3.71875 z m 0,0"
           id="path31891" /></g><g
         id="glyph-0-4"><path
           d="m 0,5.734375 c 1.65625,1.71875 3.8125,4.125 3.8125,6.5 0,1.515625 -0.34375,3.015625 -0.953125,4.40625 -0.0625,0.34375 0.234375,0.59375 0.515625,0.59375 0.15625,0 0.34375,-0.0625 0.4375,-0.25 C 4.40625,15.46875 4.75,13.875 4.75,12.234375 4.75,7.71875 0,4.515625 0,0 h -0.34375 v 5.734375 z m 0,0"
           id="path31894" /></g><g
         id="glyph-0-5"><path
           d="M 1.328125,-3.421875 C 0.59375,-3.421875 0,-2.8125 0,-2.078125 c 0,0.65625 0.53125,1.1875 1.1875,1.1875 H 1.78125 C 1.484375,1.21875 0,1.390625 0,1.78125 c 0,0.171875 0.140625,0.296875 0.296875,0.296875 0.28125,0 2.515625,-1.1875 2.515625,-3.5625 v -0.4375 c 0,-0.828125 -0.65625,-1.5 -1.484375,-1.5 z m 0,0"
           id="path31897" /></g><g
         id="glyph-0-6"><path
           d="M 0,0 C 0,-4.65625 6.125,-7.015625 6.125,-11.671875 6.125,-13.09375 5.78125,-14.46875 5.203125,-15.75 5.109375,-15.9375 4.921875,-16 4.765625,-16 4.5,-16 4.1875,-15.765625 4.265625,-15.421875 4.84375,-14.25 5.1875,-12.96875 5.1875,-11.671875 5.1875,-9.125 2.25,-7.0625 0,-5.734375 H -0.34375 V 0 Z m 0,0"
           id="path31900" /></g><g
         id="glyph-1-0" /><g
         id="glyph-1-1"><path
           d="m 3.109375,-4.078125 v -3.375 c 0,-0.640625 0,-0.671875 0.09375,-0.78125 0.078125,-0.125 0.328125,-0.15625 1.03125,-0.171875 H 4.46875 V -8.984375 H 0.375 v 0.578125 h 0.21875 c 0.71875,0.015625 0.953125,0.046875 1.046875,0.171875 0.078125,0.109375 0.078125,0.15625 0.078125,0.78125 v 5.921875 c 0,0.625 0,0.65625 -0.078125,0.765625 -0.09375,0.125 -0.328125,0.1875 -1.046875,0.1875 H 0.375 V 0 H 4.46875 V -0.578125 H 4.234375 c -0.703125,-0.015625 -0.9375,-0.0625 -1.03125,-0.1875 -0.09375,-0.109375 -0.09375,-0.125 -0.09375,-0.765625 V -3.109375 L 4.5625,-4.5625 6.71875,-1.390625 c 0.203125,0.296875 0.25,0.390625 0.25,0.515625 0,0.21875 -0.234375,0.296875 -0.84375,0.296875 H 5.734375 V 0 H 10 V -0.578125 H 9.765625 c -0.71875,-0.015625 -0.84375,-0.078125 -1.21875,-0.625 L 5.53125,-5.546875 7.390625,-7.40625 c 0.59375,-0.640625 1.34375,-1 2.09375,-1 V -8.984375 H 5.65625 v 0.578125 h 0.3125 c 0.5625,0 0.8125,0.109375 0.8125,0.375 0,0.171875 -0.25,0.515625 -0.609375,0.890625 z m 0,0"
           id="path31904" /></g><g
         id="glyph-1-2"><path
           d="m 2.421875,-5.796875 v -2.46875 H 1.90625 c -0.125,1.609375 -0.671875,2.4375 -1.6875,2.515625 v 0.484375 H 1.25 v 3.171875 c 0,0.875 0.015625,1.1875 0.140625,1.46875 0.203125,0.53125 0.703125,0.8125 1.421875,0.8125 1.125,0 1.84375,-0.84375 1.84375,-2.171875 0,-0.078125 0,-0.15625 -0.015625,-0.28125 H 4.125 c -0.046875,1.125 -0.359375,1.6875 -0.96875,1.6875 -0.296875,0 -0.546875,-0.140625 -0.625,-0.359375 C 2.453125,-1.109375 2.421875,-1.421875 2.421875,-1.875 V -5.265625 H 4.25 v -0.53125 z m 0,0"
           id="path31907" /></g><g
         id="glyph-1-3"><path
           d="m 3.140625,-5.984375 c -1.53125,0 -2.71875,1.359375 -2.71875,3.09375 0,1.703125 1.203125,3.078125 2.6875,3.078125 1.5,0 2.6875,-1.375 2.6875,-3.09375 0,-1.703125 -1.1875,-3.078125 -2.65625,-3.078125 z m 0,0.53125 c 0.875,0 1.359375,0.90625 1.359375,2.546875 0,1.65625 -0.484375,2.5625 -1.390625,2.5625 -0.890625,0 -1.375,-0.90625 -1.375,-2.546875 0,-1.6875 0.46875,-2.5625 1.40625,-2.5625 z M 2.296875,-6.65625 h 0.5 L 4.78125,-7.875 C 4.984375,-8 5.109375,-8.1875 5.109375,-8.359375 c 0,-0.25 -0.1875,-0.4375 -0.4375,-0.4375 -0.203125,0 -0.328125,0.078125 -0.625,0.390625 z m 0,0"
           id="path31910" /></g><g
         id="glyph-1-4"><path
           d="m 2.46875,-5.796875 -2.203125,0.125 V -5.125 h 0.5 C 1.25,-5.125 1.3125,-5.046875 1.3125,-4.515625 v 3.5625 C 1.296875,-0.765625 1.28125,-0.6875 1.234375,-0.625 c -0.09375,0.109375 -0.34375,0.171875 -0.875,0.171875 H 0.3125 V 0 H 3.640625 V -0.453125 H 3.40625 C 2.578125,-0.46875 2.46875,-0.53125 2.46875,-0.984375 V -1.65625 c 0.015625,-2.09375 0.75,-3.6875 1.734375,-3.734375 -0.1875,0.203125 -0.234375,0.328125 -0.234375,0.5625 0,0.390625 0.296875,0.6875 0.6875,0.6875 0.46875,0 0.765625,-0.34375 0.765625,-0.84375 0,-0.609375 -0.421875,-1 -1.09375,-1 -0.78125,0 -1.453125,0.609375 -1.859375,1.71875 z m 0,0"
           id="path31913" /></g><g
         id="glyph-1-5"><path
           d="m 3.734375,-1.578125 -1.375,-3.203125 c -0.046875,-0.125 -0.0625,-0.1875 -0.0625,-0.25 0,-0.234375 0.140625,-0.328125 0.5625,-0.328125 H 3.125 v -0.4375 H 0.15625 v 0.4375 h 0.140625 c 0.421875,0.015625 0.59375,0.140625 0.84375,0.671875 l 2.03125,4.59375 -0.203125,0.4375 C 2.515625,1.296875 1.9375,1.953125 1.53125,1.953125 c -0.109375,0 -0.203125,-0.046875 -0.203125,-0.125 0,-0.015625 0.015625,-0.0625 0.03125,-0.109375 0.03125,-0.109375 0.0625,-0.21875 0.0625,-0.328125 0,-0.3125 -0.265625,-0.5625 -0.640625,-0.5625 -0.4375,0 -0.75,0.328125 -0.75,0.78125 0,0.5625 0.484375,0.953125 1.140625,0.953125 0.65625,0 1.21875,-0.328125 1.71875,-1 0.390625,-0.5 0.640625,-1.03125 1.1875,-2.390625 l 1.40625,-3.515625 c 0.296875,-0.71875 0.5625,-1 1.046875,-1.015625 h 0.078125 v -0.4375 H 4.125 v 0.4375 H 4.328125 C 4.796875,-5.359375 5,-5.21875 5,-4.890625 c 0,0.140625 -0.046875,0.28125 -0.125,0.5 z m 0,0"
           id="path31916" /></g><g
         id="glyph-1-6"><path
           d="m 4.859375,-5.9375 h -0.4375 L 4.0625,-5.484375 c -0.453125,-0.359375 -0.90625,-0.5 -1.515625,-0.5 -1.109375,0 -1.828125,0.703125 -1.828125,1.796875 0,0.484375 0.171875,0.90625 0.4375,1.15625 0.28125,0.25 0.578125,0.375 1.328125,0.546875 l 0.65625,0.15625 C 4.125,-2.09375 4.46875,-1.84375 4.46875,-1.34375 c 0,0.578125 -0.515625,1 -1.234375,1 -1.0625,0 -1.796875,-0.671875 -2.09375,-1.921875 h -0.5 V 0.09375 h 0.4375 L 1.5,-0.421875 C 2.015625,-0.015625 2.578125,0.1875 3.21875,0.1875 4.4375,0.1875 5.25,-0.578125 5.25,-1.734375 c 0,-0.546875 -0.1875,-0.96875 -0.53125,-1.25 C 4.421875,-3.25 4.171875,-3.34375 3.40625,-3.515625 L 2.796875,-3.65625 C 2.109375,-3.796875 2.109375,-3.796875 1.875,-3.921875 1.609375,-4.046875 1.4375,-4.3125 1.4375,-4.578125 c 0,-0.515625 0.484375,-0.859375 1.171875,-0.859375 0.46875,0 0.859375,0.15625 1.203125,0.5 0.265625,0.265625 0.40625,0.515625 0.609375,1.09375 h 0.4375 z M 1.9375,-6.65625 H 2.453125 L 4.4375,-7.875 C 4.625,-8 4.75,-8.1875 4.75,-8.359375 c 0,-0.25 -0.1875,-0.4375 -0.4375,-0.4375 -0.203125,0 -0.3125,0.078125 -0.625,0.390625 z m 0,0"
           id="path31919" /></g><g
         id="glyph-1-7"><path
           d="m 5.328125,-5.796875 h -4.5 l -0.109375,2.09375 h 0.5 C 1.3125,-4.8125 1.8125,-5.28125 2.796875,-5.265625 h 1.09375 l -3.40625,4.8125 V 0 h 4.84375 l 0.09375,-2.234375 h -0.5 c -0.125,1.21875 -0.609375,1.71875 -1.71875,1.703125 H 1.9375 l 3.390625,-4.828125 z m 0,0"
           id="path31922" /></g><g
         id="glyph-1-8"><path
           d="m 5.625,-4.015625 c 0,-0.78125 -0.140625,-1.171875 -0.5,-1.46875 -0.40625,-0.34375 -1.015625,-0.5 -1.8125,-0.5 -1.40625,0 -2.421875,0.65625 -2.421875,1.5625 0,0.46875 0.28125,0.765625 0.71875,0.765625 C 2,-3.65625 2.28125,-3.921875 2.28125,-4.296875 2.28125,-4.453125 2.21875,-4.625 2.09375,-4.8125 2.015625,-4.890625 2,-4.921875 2,-4.984375 c 0,-0.25 0.5,-0.46875 1.09375,-0.46875 0.40625,0 0.84375,0.125 1.046875,0.3125 0.234375,0.203125 0.3125,0.5 0.3125,1.0625 V -3.59375 C 3.15625,-3.375 2.75,-3.28125 2.140625,-3.03125 1.0625,-2.640625 0.546875,-2.0625 0.546875,-1.265625 0.546875,-0.375 1.25,0.1875 2.359375,0.1875 c 0.859375,0 1.625,-0.34375 2.15625,-0.984375 0.203125,0.640625 0.515625,0.890625 1.09375,0.890625 0.5625,0 1.15625,-0.375 1.15625,-0.734375 0,-0.078125 -0.046875,-0.140625 -0.125,-0.140625 -0.046875,0 -0.109375,0.015625 -0.1875,0.046875 -0.171875,0.078125 -0.25,0.09375 -0.34375,0.09375 C 5.75,-0.640625 5.625,-0.875 5.625,-1.5 Z m -1.171875,1.53125 c 0,0.734375 -0.03125,0.921875 -0.25,1.234375 -0.3125,0.46875 -0.859375,0.78125 -1.40625,0.78125 -0.578125,0 -0.984375,-0.421875 -0.984375,-0.96875 0,-0.53125 0.25,-0.90625 0.796875,-1.171875 C 3,-2.78125 3.484375,-2.90625 4.453125,-3.0625 Z m 0,0"
           id="path31925" /></g><g
         id="glyph-1-9"><path
           d="m 2.484375,-5.796875 -2.140625,0.125 V -5.125 h 0.4375 c 0.46875,0 0.53125,0.078125 0.53125,0.609375 v 3.5625 c 0,0.1875 -0.015625,0.265625 -0.0625,0.328125 -0.09375,0.109375 -0.328125,0.171875 -0.859375,0.171875 H 0.34375 V 0 H 3.484375 V -0.453125 H 3.4375 C 2.609375,-0.46875 2.484375,-0.53125 2.484375,-0.984375 v -1.84375 C 2.484375,-3.4375 2.578125,-4 2.71875,-4.28125 c 0.25,-0.5625 0.8125,-0.953125 1.359375,-0.953125 0.3125,0 0.6875,0.171875 0.875,0.4375 0.1875,0.28125 0.28125,0.65625 0.28125,1.25 v 2.59375 C 5.21875,-0.765625 5.203125,-0.6875 5.15625,-0.625 5.0625,-0.515625 4.8125,-0.453125 4.28125,-0.453125 H 4.234375 V 0 h 3.15625 v -0.453125 h -0.0625 C 6.515625,-0.46875 6.40625,-0.53125 6.40625,-0.984375 v -2.5 c 0,-0.90625 -0.046875,-1.125 -0.265625,-1.546875 -0.3125,-0.59375 -0.9375,-0.953125 -1.6875,-0.953125 -0.796875,0 -1.421875,0.375 -1.96875,1.1875 z m 0,0"
           id="path31928" /></g><g
         id="glyph-1-10"><path
           d="m 4.859375,-5.9375 h -0.4375 L 4.0625,-5.484375 c -0.453125,-0.359375 -0.90625,-0.5 -1.515625,-0.5 -1.109375,0 -1.828125,0.703125 -1.828125,1.796875 0,0.484375 0.171875,0.90625 0.4375,1.15625 0.28125,0.25 0.578125,0.375 1.328125,0.546875 l 0.65625,0.15625 C 4.125,-2.09375 4.46875,-1.84375 4.46875,-1.34375 c 0,0.578125 -0.515625,1 -1.234375,1 -1.0625,0 -1.796875,-0.671875 -2.09375,-1.921875 h -0.5 V 0.09375 h 0.4375 L 1.5,-0.421875 C 2.015625,-0.015625 2.578125,0.1875 3.21875,0.1875 4.4375,0.1875 5.25,-0.578125 5.25,-1.734375 c 0,-0.546875 -0.1875,-0.96875 -0.53125,-1.25 C 4.421875,-3.25 4.171875,-3.34375 3.40625,-3.515625 L 2.796875,-3.65625 C 2.109375,-3.796875 2.109375,-3.796875 1.875,-3.921875 1.609375,-4.046875 1.4375,-4.3125 1.4375,-4.578125 c 0,-0.515625 0.484375,-0.859375 1.171875,-0.859375 0.46875,0 0.859375,0.15625 1.203125,0.5 0.265625,0.265625 0.40625,0.515625 0.609375,1.09375 h 0.4375 z m 0,0"
           id="path31931" /></g><g
         id="glyph-1-11"><path
           d="m 4.8125,-1.828125 c -0.390625,0.890625 -0.8125,1.25 -1.46875,1.25 -0.984375,0 -1.609375,-0.90625 -1.609375,-2.359375 0,-1.515625 0.609375,-2.515625 1.53125,-2.515625 0.375,0 0.6875,0.171875 0.6875,0.375 0,0.03125 0,0.078125 -0.0625,0.140625 -0.203125,0.25 -0.25,0.375 -0.25,0.578125 0,0.40625 0.3125,0.703125 0.75,0.703125 0.4375,0 0.75,-0.359375 0.75,-0.859375 0,-0.84375 -0.828125,-1.46875 -1.9375,-1.46875 -1.625,0 -2.78125,1.3125 -2.78125,3.1875 0,1.765625 1.0625,2.984375 2.609375,2.984375 1.109375,0 1.734375,-0.515625 2.28125,-1.828125 z m 0,0"
           id="path31934" /></g><g
         id="glyph-1-12"><path
           d="m 2.5625,-5.796875 -2.34375,0.125 V -5.125 h 0.640625 c 0.46875,0 0.53125,0.078125 0.53125,0.609375 v 3.5625 C 1.375,-0.765625 1.375,-0.6875 1.3125,-0.625 1.234375,-0.515625 1,-0.453125 0.453125,-0.453125 H 0.375 V 0 H 3.59375 V -0.453125 H 3.515625 C 2.671875,-0.46875 2.5625,-0.53125 2.5625,-0.984375 Z M 1.984375,-8.90625 c -0.40625,0 -0.734375,0.328125 -0.734375,0.71875 0,0.40625 0.328125,0.734375 0.71875,0.734375 0.40625,0 0.734375,-0.328125 0.734375,-0.734375 0,-0.390625 -0.328125,-0.71875 -0.71875,-0.71875 z m 0,0"
           id="path31937" /></g><g
         id="glyph-1-13"><path
           d="m 5.796875,-2.796875 c 0,-1.875 -1.046875,-3.1875 -2.578125,-3.1875 -1.59375,0 -2.78125,1.375 -2.78125,3.25 0,1.75 1.125,2.921875 2.8125,2.921875 1.203125,0 2.03125,-0.59375 2.546875,-1.765625 L 5.359375,-1.8125 c -0.515625,0.953125 -1.03125,1.328125 -1.875,1.328125 -0.625,0 -1.09375,-0.265625 -1.421875,-0.828125 C 1.84375,-1.6875 1.75,-2.109375 1.75,-2.796875 Z M 1.765625,-3.34375 c 0,-0.375 0.046875,-0.65625 0.171875,-1 0.265625,-0.75 0.671875,-1.109375 1.28125,-1.109375 0.734375,0 1.234375,0.65625 1.234375,1.671875 0,0.34375 -0.109375,0.4375 -0.5,0.4375 z m 0,0"
           id="path31940" /></g><g
         id="glyph-1-14"><path
           d="m 2.5,-5.796875 -2.15625,0.125 V -5.125 h 0.453125 c 0.46875,0 0.53125,0.078125 0.53125,0.609375 v 6.09375 C 1.3125,1.75 1.3125,1.828125 1.25,1.890625 1.171875,2 0.9375,2.0625 0.40625,2.0625 h -0.0625 v 0.453125 h 3.25 V 2.0625 H 3.453125 C 2.609375,2.046875 2.5,1.984375 2.5,1.53125 V -0.828125 C 2.90625,-0.09375 3.375,0.1875 4.140625,0.1875 4.90625,0.1875 5.53125,-0.140625 5.984375,-0.75 6.40625,-1.34375 6.65625,-2.109375 6.65625,-2.921875 c 0,-0.8125 -0.25,-1.578125 -0.703125,-2.171875 -0.46875,-0.59375 -1.03125,-0.890625 -1.734375,-0.890625 -0.765625,0 -1.28125,0.3125 -1.71875,1.0625 z M 4,-5.3125 c 0.859375,0 1.359375,0.859375 1.359375,2.3125 0,1.609375 -0.5,2.515625 -1.40625,2.515625 -0.890625,0 -1.46875,-0.921875 -1.46875,-2.359375 0,-1.546875 0.5625,-2.46875 1.515625,-2.46875 z m 0,0"
           id="path31943" /></g><g
         id="glyph-1-15"><path
           d="m 2.546875,-5.25 v -3.921875 l -2.3125,0.125 V -8.5 h 0.59375 C 1.3125,-8.5 1.375,-8.421875 1.375,-7.875 v 3.328125 L 0.40625,-3.875 v 0.703125 L 1.375,-3.84375 v 2.890625 C 1.359375,-0.765625 1.34375,-0.6875 1.296875,-0.625 1.203125,-0.515625 0.96875,-0.453125 0.4375,-0.453125 H 0.34375 V 0 H 3.578125 V -0.453125 H 3.484375 C 2.65625,-0.46875 2.546875,-0.53125 2.546875,-0.984375 v -3.5625 l 0.96875,-0.671875 v -0.703125 z m 0,0"
           id="path31946" /></g><g
         id="glyph-1-16"><path
           d="m 1.078125,2.296875 c 1.125,-0.78125 1.640625,-1.53125 1.640625,-2.40625 0,-0.75 -0.421875,-1.234375 -1.03125,-1.234375 -0.453125,0 -0.796875,0.328125 -0.796875,0.75 0,0.4375 0.328125,0.734375 0.859375,0.734375 0.0625,0 0.140625,0 0.1875,-0.015625 h 0.03125 c 0.0625,0 0.09375,0.03125 0.09375,0.109375 0,0.53125 -0.4375,1.109375 -1.265625,1.703125 z m 0,0"
           id="path31949" /></g><g
         id="glyph-1-17"><path
           d="m 2.609375,-8.40625 h 0.21875 c 0.703125,0.015625 0.9375,0.046875 1.046875,0.171875 0.078125,0.109375 0.078125,0.140625 0.078125,0.78125 v 4 c 0,1.09375 -0.046875,1.59375 -0.171875,1.984375 -0.234375,0.703125 -0.75,1.0625 -1.46875,1.0625 -0.515625,0 -1,-0.203125 -1.265625,-0.546875 C 0.90625,-1.125 0.8125,-1.375 0.8125,-1.515625 0.8125,-1.625 0.875,-1.71875 0.953125,-1.71875 H 1 c 0.203125,0.046875 0.3125,0.0625 0.453125,0.0625 0.453125,0 0.78125,-0.390625 0.78125,-0.890625 0,-0.53125 -0.375,-0.90625 -0.921875,-0.90625 -0.734375,0 -1.25,0.640625 -1.25,1.515625 0,0.609375 0.28125,1.21875 0.71875,1.59375 0.421875,0.359375 1,0.53125 1.75,0.53125 1.109375,0 1.90625,-0.359375 2.34375,-1.0625 0.3125,-0.5 0.453125,-1.234375 0.453125,-2.46875 v -4.109375 c 0,-0.640625 0,-0.671875 0.09375,-0.78125 0.078125,-0.125 0.3125,-0.15625 1.03125,-0.171875 H 6.6875 V -8.984375 H 2.609375 Z m 0,0"
           id="path31952" /></g><g
         id="glyph-1-18"><path
           d="M 5.125,0.09375 7.390625,0 v -0.53125 h -0.3125 C 6.359375,-0.5625 6.296875,-0.640625 6.296875,-1.4375 v -4.359375 l -2.34375,0.125 V -5.125 H 4.59375 c 0.46875,0 0.53125,0.078125 0.53125,0.609375 v 1.546875 c 0,0.703125 -0.0625,1.125 -0.25,1.53125 -0.265625,0.546875 -0.765625,0.859375 -1.375,0.859375 -0.390625,0 -0.703125,-0.125 -0.875,-0.375 C 2.46875,-1.203125 2.4375,-1.3125 2.4375,-2 v -3.796875 l -2.171875,0.125 V -5.125 h 0.46875 c 0.46875,0 0.53125,0.078125 0.53125,0.609375 V -1.8125 c 0,0.625 0.046875,0.921875 0.234375,1.203125 0.34375,0.515625 0.9375,0.796875 1.6875,0.796875 0.828125,0 1.390625,-0.34375 1.9375,-1.140625 z m 0,0"
           id="path31955" /></g><g
         id="glyph-1-19"><path
           d="m 7.953125,-9.078125 h -0.46875 l -0.5,0.734375 C 6.078125,-9 5.609375,-9.171875 4.75,-9.171875 c -1.171875,0 -2.1875,0.484375 -3.015625,1.484375 -0.796875,0.953125 -1.171875,2 -1.171875,3.28125 0,2.6875 1.75,4.59375 4.203125,4.59375 2,0 3.265625,-1.171875 3.546875,-3.265625 l -0.578125,-0.09375 c -0.34375,1.859375 -1.28125,2.765625 -2.8125,2.765625 -1.84375,0 -2.71875,-1.265625 -2.71875,-3.953125 0,-1.421875 0.1875,-2.359375 0.609375,-3.09375 0.390625,-0.703125 1.140625,-1.140625 1.953125,-1.140625 0.875,0 1.640625,0.46875 2.125,1.265625 0.234375,0.40625 0.40625,0.859375 0.703125,1.84375 h 0.546875 z m 0,0"
           id="path31958" /></g><g
         id="glyph-1-20"><path
           d="m 2.484375,-9.171875 -2.296875,0.125 V -8.5 h 0.59375 c 0.46875,0 0.53125,0.078125 0.53125,0.625 v 6.9375 c 0,0.171875 -0.015625,0.25 -0.0625,0.3125 -0.09375,0.109375 -0.328125,0.171875 -0.859375,0.171875 H 0.34375 V 0 H 3.484375 V -0.453125 H 3.4375 C 2.609375,-0.46875 2.484375,-0.53125 2.484375,-0.984375 v -1.84375 C 2.484375,-3.4375 2.578125,-4 2.71875,-4.28125 c 0.265625,-0.5625 0.8125,-0.953125 1.359375,-0.953125 0.3125,0 0.6875,0.1875 0.859375,0.4375 0.203125,0.28125 0.296875,0.65625 0.296875,1.265625 V -0.9375 C 5.21875,-0.765625 5.203125,-0.6875 5.15625,-0.625 5.0625,-0.515625 4.8125,-0.453125 4.28125,-0.453125 H 4.234375 V 0 h 3.15625 v -0.453125 h -0.0625 C 6.515625,-0.46875 6.40625,-0.53125 6.40625,-0.984375 v -2.5 c 0,-0.90625 -0.046875,-1.125 -0.265625,-1.546875 -0.3125,-0.609375 -0.9375,-0.953125 -1.6875,-0.953125 -0.796875,0 -1.40625,0.359375 -1.96875,1.1875 z m 0,0"
           id="path31961" /></g><g
         id="glyph-1-21"><path
           d="m 2.5,-5.796875 -2.21875,0.125 V -5.125 h 0.515625 c 0.46875,0 0.53125,0.078125 0.53125,0.609375 v 3.5625 C 1.3125,-0.765625 1.3125,-0.6875 1.25,-0.625 1.171875,-0.515625 0.9375,-0.453125 0.40625,-0.453125 H 0.34375 V 0 H 3.484375 V -0.453125 H 3.4375 C 2.609375,-0.46875 2.5,-0.53125 2.5,-1 v -2.296875 c 0,-1.109375 0.609375,-1.9375 1.421875,-1.9375 C 4.625,-5.234375 5,-4.71875 5,-3.71875 v 2.78125 c -0.015625,0.171875 -0.03125,0.25 -0.09375,0.3125 -0.078125,0.109375 -0.328125,0.171875 -0.859375,0.171875 H 4 V 0 H 7.140625 V -0.453125 H 7.09375 C 6.28125,-0.46875 6.171875,-0.53125 6.171875,-0.984375 V -3.1875 c 0,-1.25 0.546875,-2.046875 1.421875,-2.046875 0.71875,0 1.0625,0.546875 1.0625,1.65625 v 2.625 C 8.640625,-0.765625 8.625,-0.6875 8.5625,-0.625 8.5,-0.515625 8.25,-0.453125 7.703125,-0.453125 H 7.65625 V 0 H 10.8125 V -0.453125 H 10.76563 C 9.9375,-0.46875 9.828125,-0.53125 9.828125,-1 V -3.828125 C 9.828125,-4.59375 9.75,-4.859375 9.421875,-5.28125 9.0625,-5.734375 8.5625,-5.984375 7.953125,-5.984375 c -0.8125,0 -1.40625,0.375 -1.9375,1.234375 C 5.796875,-5.484375 5.125,-5.984375 4.296875,-5.984375 3.53125,-5.984375 2.984375,-5.625 2.5,-4.84375 Z m 0,0"
           id="path31964" /></g><g
         id="glyph-1-22"><path
           d="m 2.578125,-5.796875 -2.421875,0.125 V -5.125 H 0.875 c 0.46875,0 0.53125,0.078125 0.53125,0.609375 v 4.234375 c 0,1 -0.0625,1.484375 -0.234375,1.84375 C 1.046875,1.8125 0.765625,2 0.484375,2 0.3125,2 0.171875,1.921875 0.171875,1.828125 0.171875,1.78125 0.1875,1.75 0.234375,1.625 0.296875,1.5 0.328125,1.421875 0.328125,1.328125 0.328125,1.015625 0.03125,0.75 -0.328125,0.75 c -0.390625,0 -0.6875,0.3125 -0.6875,0.75 0,0.609375 0.5625,1.015625 1.390625,1.015625 0.703125,0 1.328125,-0.296875 1.6875,-0.8125 0.390625,-0.546875 0.515625,-1.1875 0.515625,-2.59375 z M 2,-8.90625 c -0.40625,0 -0.734375,0.328125 -0.734375,0.71875 0,0.40625 0.328125,0.734375 0.71875,0.734375 0.40625,0 0.734375,-0.328125 0.734375,-0.734375 0,-0.390625 -0.328125,-0.71875 -0.71875,-0.71875 z m 0,0"
           id="path31967" /></g><g
         id="glyph-1-23"><path
           d="m 5.359375,-1.8125 c -0.515625,0.953125 -1.03125,1.328125 -1.875,1.328125 -0.625,0 -1.09375,-0.265625 -1.421875,-0.828125 C 1.84375,-1.6875 1.75,-2.109375 1.75,-2.796875 h 4.046875 c 0,-1.875 -1.046875,-3.1875 -2.578125,-3.1875 -1.59375,0 -2.78125,1.375 -2.78125,3.25 0,1.75 1.125,2.921875 2.828125,2.921875 0.3125,0 0.5,-0.03125 0.828125,-0.109375 -0.375,0.265625 -0.546875,0.5625 -0.546875,0.96875 0,0.484375 0.375,0.84375 0.875,0.84375 0.46875,0 0.828125,-0.1875 1.34375,-0.703125 L 5.5625,0.921875 C 5.203125,1.25 4.9375,1.375 4.671875,1.375 c -0.28125,0 -0.5,-0.234375 -0.5,-0.5625 0,-0.234375 0.078125,-0.375 0.296875,-0.59375 0.65625,-0.65625 1.140625,-1.3125 1.328125,-1.796875 z m -3.59375,-1.53125 c 0,-0.375 0.046875,-0.65625 0.171875,-1 0.265625,-0.75 0.671875,-1.109375 1.28125,-1.109375 0.734375,0 1.234375,0.65625 1.234375,1.671875 0,0.34375 -0.109375,0.4375 -0.5,0.4375 z m 0,0"
           id="path31970" /></g><g
         id="glyph-1-24"><path
           d="M 4.734375,0.09375 6.90625,0 V -0.53125 H 6.671875 C 5.96875,-0.578125 5.90625,-0.640625 5.90625,-1.4375 v -7.734375 l -2.4375,0.125 V -8.5 h 0.734375 c 0.46875,0 0.53125,0.078125 0.53125,0.625 v 2.8125 c -0.46875,-0.640625 -1,-0.921875 -1.71875,-0.921875 -1.40625,0 -2.484375,1.359375 -2.484375,3.140625 0,1.765625 1.03125,3.03125 2.484375,3.03125 0.78125,0 1.3125,-0.34375 1.71875,-1.078125 z M 3.265625,-5.3125 c 0.5,0 1,0.375 1.21875,0.9375 0.15625,0.375 0.234375,0.890625 0.234375,1.5 0,1.453125 -0.578125,2.390625 -1.46875,2.390625 -0.890625,0 -1.40625,-0.828125 -1.40625,-2.203125 0,-0.75 0.078125,-1.3125 0.234375,-1.71875 0.21875,-0.5625 0.671875,-0.90625 1.1875,-0.90625 z m 0,0"
           id="path31973" /></g><g
         id="glyph-1-25"><path
           d="m 1.703125,-1.375 c -0.4375,0 -0.78125,0.34375 -0.78125,0.765625 0,0.4375 0.34375,0.78125 0.765625,0.78125 0.4375,0 0.796875,-0.34375 0.796875,-0.78125 C 2.484375,-1.03125 2.125,-1.375 1.703125,-1.375 Z m 0,0"
           id="path31976" /></g><g
         id="glyph-2-0" /><g
         id="glyph-2-1"><path
           d="m 2.828125,-5.921875 -2.28125,0.1875 -0.0625,0.453125 h 0.3125 c 0.5,0 0.734375,0.125 0.734375,0.359375 0,0.078125 -0.0625,0.34375 -0.140625,0.59375 L 0.109375,0 h 1.09375 l 0.59375,-1.984375 C 2.265625,-3.5625 3.3125,-5.15625 3.890625,-5.15625 c 0.171875,0 0.234375,0.09375 0.234375,0.4375 0,0.34375 0.203125,0.53125 0.578125,0.53125 0.4375,0 0.75,-0.328125 0.75,-0.796875 0,-0.546875 -0.421875,-0.9375 -1,-0.9375 -0.703125,0 -1.25,0.421875 -1.921875,1.46875 z m 0,0"
           id="path31980" /></g><g
         id="glyph-2-2"><path
           d="M 2.90625,-5.921875 0.484375,-5.734375 0.4375,-5.28125 H 0.75 c 0.515625,0 0.703125,0.125 0.703125,0.390625 0,0.125 -0.015625,0.265625 -0.109375,0.5625 L 0.609375,-1.875 C 0.375,-1.078125 0.34375,-0.890625 0.34375,-0.609375 c 0,0.453125 0.375,0.78125 0.859375,0.78125 0.546875,0 1.0625,-0.28125 1.5625,-0.859375 C 3,-0.9375 3.203125,-1.21875 3.546875,-1.765625 L 3.15625,-1.984375 c -0.65625,1 -1.171875,1.53125 -1.515625,1.53125 -0.125,0 -0.21875,-0.109375 -0.21875,-0.265625 0,-0.125 0.046875,-0.359375 0.15625,-0.703125 z M 2.6875,-8.984375 C 2.296875,-8.984375 2,-8.6875 2,-8.3125 c 0,0.359375 0.296875,0.6875 0.671875,0.6875 0.390625,0 0.6875,-0.3125 0.6875,-0.6875 0,-0.375 -0.296875,-0.671875 -0.671875,-0.671875 z m 0,0"
           id="path31983" /></g><g
         id="glyph-2-3"><path
           d="m 3.390625,-7.828125 h -1.09375 l -0.625,2.09375 h -1.1875 L 0.3125,-5.140625 H 1.5 L 0.546875,-1.96875 C 0.359375,-1.328125 0.3125,-1.0625 0.3125,-0.765625 c 0,0.53125 0.390625,0.953125 0.90625,0.953125 0.59375,0 1.296875,-0.390625 1.734375,-0.984375 0.1875,-0.234375 0.3125,-0.4375 0.640625,-0.96875 l -0.375,-0.25 c -0.796875,1.203125 -1.15625,1.53125 -1.5625,1.53125 -0.1875,0 -0.296875,-0.125 -0.296875,-0.34375 0,-0.109375 0.015625,-0.1875 0.03125,-0.296875 L 2.59375,-5.140625 h 1.375 l 0.171875,-0.59375 h -1.375 z m 0,0"
           id="path31986" /></g><g
         id="glyph-2-4"><path
           d="m 1,-1.375 c -0.4375,0 -0.78125,0.359375 -0.78125,0.78125 0,0.4375 0.34375,0.78125 0.765625,0.78125 0.453125,0 0.796875,-0.34375 0.796875,-0.78125 C 1.78125,-1.015625 1.421875,-1.375 1,-1.375 Z m 0,0"
           id="path31989" /></g><g
         id="glyph-3-0" /><g
         id="glyph-3-1"><path
           d="m 3.609375,-9.09375 h -3.25 V -8.5 h 0.25 c 0.71875,0.015625 0.953125,0.046875 1.046875,0.171875 0.078125,0.109375 0.078125,0.125 0.078125,0.78125 V -2.71875 C 1.734375,-1 1.5,-0.65625 0.28125,-0.59375 V 0 H 3.859375 V -0.59375 C 2.65625,-0.65625 2.421875,-1 2.421875,-2.71875 v -5.5625 l 3,8.28125 h 0.5 l 2.8125,-8.28125 v 6.734375 c 0,0.640625 0,0.671875 -0.078125,0.796875 -0.109375,0.125 -0.34375,0.15625 -1.0625,0.15625 H 7.375 V 0 H 11.5 v -0.59375 h -0.234375 c -0.71875,0 -0.953125,-0.03125 -1.046875,-0.15625 -0.07813,-0.125 -0.07813,-0.140625 -0.07813,-0.796875 v -6 c 0,-0.640625 0,-0.671875 0.07813,-0.78125 0.09375,-0.125 0.328125,-0.15625 1.046875,-0.171875 H 11.5 V -9.09375 H 8.34375 L 6.03125,-2.375 Z m 0,0"
           id="path31993" /></g><g
         id="glyph-3-2"><path
           d="M 5.1875,0.09375 7.484375,0 v -0.546875 h -0.3125 C 6.4375,-0.5625 6.375,-0.640625 6.375,-1.453125 V -5.875 L 4,-5.734375 V -5.1875 H 4.640625 C 5.125,-5.171875 5.1875,-5.09375 5.1875,-4.5625 v 1.546875 c 0,0.71875 -0.078125,1.15625 -0.265625,1.5625 -0.265625,0.5625 -0.765625,0.875 -1.390625,0.875 -0.390625,0 -0.703125,-0.140625 -0.875,-0.390625 C 2.5,-1.203125 2.46875,-1.328125 2.46875,-2.03125 V -5.875 L 0.265625,-5.734375 V -5.1875 H 0.75 c 0.46875,0.015625 0.53125,0.09375 0.53125,0.625 v 2.71875 c 0,0.640625 0.046875,0.9375 0.25,1.234375 0.328125,0.515625 0.9375,0.796875 1.6875,0.796875 0.84375,0 1.421875,-0.34375 1.96875,-1.140625 z m 0,0"
           id="path31996" /></g><g
         id="glyph-3-3"><path
           d="M 4.90625,-6 H 4.46875 L 4.109375,-5.546875 C 3.65625,-5.90625 3.203125,-6.0625 2.5625,-6.0625 c -1.109375,0 -1.828125,0.71875 -1.828125,1.828125 0,0.5 0.15625,0.90625 0.4375,1.15625 C 1.453125,-2.8125 1.75,-2.6875 2.5,-2.5 l 0.671875,0.140625 c 1,0.25 1.34375,0.5 1.34375,1 0,0.59375 -0.515625,1 -1.234375,1 -1.078125,0 -1.828125,-0.671875 -2.140625,-1.9375 h -0.5 V 0.09375 h 0.4375 L 1.53125,-0.421875 C 2.046875,-0.015625 2.609375,0.1875 3.25,0.1875 c 1.234375,0 2.046875,-0.765625 2.046875,-1.9375 0,-0.546875 -0.171875,-0.984375 -0.53125,-1.265625 -0.296875,-0.265625 -0.546875,-0.375 -1.3125,-0.53125 L 2.828125,-3.6875 C 2.125,-3.84375 2.125,-3.84375 1.90625,-3.96875 1.625,-4.09375 1.453125,-4.359375 1.453125,-4.640625 1.453125,-5.15625 1.9375,-5.5 2.625,-5.5 3.109375,-5.5 3.5,-5.34375 3.859375,-5 4.125,-4.71875 4.265625,-4.46875 4.46875,-3.890625 h 0.4375 z m 0,0"
           id="path31999" /></g><g
         id="glyph-3-4"><path
           d="M 2.59375,-5.875 0.234375,-5.734375 V -5.1875 H 0.875 c 0.46875,0.015625 0.53125,0.09375 0.53125,0.625 v 3.609375 C 1.390625,-0.765625 1.390625,-0.6875 1.328125,-0.625 1.25,-0.515625 1,-0.46875 0.46875,-0.453125 H 0.375 V 0 H 3.640625 V -0.453125 H 3.546875 C 2.703125,-0.484375 2.59375,-0.546875 2.59375,-1 Z M 2,-9 c -0.40625,0 -0.734375,0.328125 -0.734375,0.71875 0,0.40625 0.328125,0.734375 0.71875,0.734375 0.421875,0 0.75,-0.328125 0.75,-0.734375 C 2.734375,-8.671875 2.40625,-9 2,-9 Z m 0,0"
           id="path32002" /></g><g
         id="glyph-3-5"><path
           d="M 4.875,-1.84375 C 4.46875,-0.9375 4.046875,-0.578125 3.390625,-0.578125 2.375,-0.578125 1.75,-1.5 1.75,-2.96875 c 0,-1.546875 0.625,-2.546875 1.546875,-2.546875 0.375,0 0.703125,0.171875 0.703125,0.375 0,0.046875 0,0.078125 -0.078125,0.15625 -0.1875,0.234375 -0.25,0.359375 -0.25,0.578125 C 3.671875,-4 4,-3.703125 4.4375,-3.703125 c 0.453125,0 0.765625,-0.359375 0.765625,-0.859375 0,-0.859375 -0.84375,-1.5 -1.96875,-1.5 -1.640625,0 -2.8125,1.34375 -2.8125,3.234375 0,1.78125 1.078125,3.015625 2.640625,3.015625 1.125,0 1.765625,-0.515625 2.296875,-1.84375 z m 0,0"
           id="path32005" /></g><g
         id="glyph-3-6" /><g
         id="glyph-3-7"><path
           d="M 5.859375,-2.828125 C 5.875,-4.71875 4.796875,-6.0625 3.265625,-6.0625 1.65625,-6.0625 0.4375,-4.65625 0.4375,-2.765625 0.4375,-1 1.59375,0.1875 3.28125,0.1875 c 1.21875,0 2.0625,-0.59375 2.578125,-1.78125 l -0.4375,-0.25 C 4.90625,-0.875 4.375,-0.484375 3.53125,-0.484375 c -0.640625,0 -1.109375,-0.265625 -1.4375,-0.84375 -0.234375,-0.375 -0.328125,-0.8125 -0.3125,-1.5 z M 1.78125,-3.375 c 0,-0.390625 0.0625,-0.671875 0.1875,-1.015625 0.265625,-0.765625 0.65625,-1.125 1.28125,-1.125 0.75,0 1.265625,0.671875 1.265625,1.6875 C 4.515625,-3.46875 4.390625,-3.375 4,-3.375 Z m 0,0"
           id="path32009" /></g><g
         id="glyph-3-8"><path
           d="M 2.515625,-5.875 0.34375,-5.734375 V -5.1875 h 0.453125 c 0.46875,0.015625 0.53125,0.09375 0.53125,0.625 v 3.609375 c 0,0.1875 -0.015625,0.265625 -0.0625,0.328125 -0.09375,0.109375 -0.328125,0.15625 -0.875,0.171875 H 0.34375 V 0 h 3.1875 V -0.453125 H 3.46875 C 2.625,-0.484375 2.515625,-0.546875 2.515625,-1 v -1.859375 c 0,-0.609375 0.09375,-1.1875 0.234375,-1.46875 0.265625,-0.578125 0.828125,-0.96875 1.375,-0.96875 0.328125,0 0.703125,0.1875 0.890625,0.453125 0.1875,0.265625 0.28125,0.65625 0.28125,1.25 v 2.640625 C 5.28125,-0.765625 5.265625,-0.6875 5.21875,-0.625 5.125,-0.515625 4.875,-0.46875 4.328125,-0.453125 H 4.28125 V 0 h 3.1875 V -0.453125 H 7.421875 C 6.59375,-0.484375 6.46875,-0.546875 6.46875,-1 v -2.53125 c 0,-0.90625 -0.03125,-1.125 -0.265625,-1.5625 -0.3125,-0.59375 -0.9375,-0.96875 -1.6875,-0.96875 -0.828125,0 -1.4375,0.375 -2,1.21875 z m 0,0"
           id="path32012" /></g><g
         id="glyph-3-9"><path
           d="m 2.46875,-0.9375 c -0.6875,0 -0.734375,-0.015625 -0.875,-0.109375 C 1.5,-1.09375 1.4375,-1.234375 1.4375,-1.375 1.4375,-1.75 1.78125,-1.921875 2.625,-1.9375 3.796875,-1.96875 4,-1.984375 4.421875,-2.171875 c 0.75,-0.34375 1.171875,-1 1.171875,-1.828125 0,-0.515625 -0.109375,-0.828125 -0.453125,-1.234375 0.21875,-0.234375 0.328125,-0.3125 0.421875,-0.3125 0.0625,0 0.109375,0.046875 0.125,0.1875 0.0625,0.296875 0.25,0.453125 0.578125,0.453125 0.328125,0 0.5625,-0.25 0.5625,-0.59375 0,-0.4375 -0.34375,-0.734375 -0.828125,-0.734375 -0.40625,0 -0.640625,0.125 -1.21875,0.65625 C 4.25,-5.9375 3.859375,-6.0625 3.21875,-6.0625 c -1.5,0 -2.46875,0.84375 -2.46875,2.09375 0,0.75 0.390625,1.375 1.046875,1.6875 -0.84375,0.1875 -1.1875,0.5625 -1.1875,1.265625 0,0.546875 0.25,0.875 0.84375,1.078125 -0.78125,0.296875 -1.15625,0.6875 -1.15625,1.203125 0,0.375 0.25,0.71875 0.640625,0.9375 0.5,0.25 1.109375,0.359375 2.015625,0.359375 2.09375,0 3.140625,-0.671875 3.140625,-2 0,-0.625 -0.28125,-1.125 -0.734375,-1.3125 -0.34375,-0.125 -0.75,-0.1875 -1.609375,-0.1875 z m 0.75,-4.578125 C 4,-5.515625 4.4375,-4.96875 4.4375,-4 c 0,0.984375 -0.484375,1.578125 -1.28125,1.578125 -0.78125,0 -1.265625,-0.59375 -1.265625,-1.53125 0,-1 0.484375,-1.5625 1.328125,-1.5625 z m -0.125,5.671875 c 1.046875,0 1.125,0 1.296875,0.015625 C 4.90625,0.234375 5.21875,0.5 5.21875,0.90625 5.21875,1.625 4.390625,2.046875 3,2.046875 c -1.078125,0 -1.671875,-0.328125 -1.671875,-0.890625 0,-0.40625 0.234375,-0.6875 0.84375,-1 z m 0,0"
           id="path32015" /></g><g
         id="glyph-3-10"><path
           d="M 2.5,-5.875 0.265625,-5.734375 V -5.1875 H 0.78125 c 0.484375,0.015625 0.546875,0.09375 0.546875,0.625 v 3.609375 C 1.3125,-0.765625 1.296875,-0.6875 1.25,-0.625 1.15625,-0.515625 0.90625,-0.46875 0.359375,-0.453125 H 0.3125 V 0 H 3.671875 V -0.453125 H 3.453125 C 2.609375,-0.484375 2.5,-0.546875 2.5,-1 v -0.671875 c 0,-2.125 0.765625,-3.734375 1.75,-3.78125 C 4.0625,-5.25 4.015625,-5.125 4.015625,-4.890625 c 0,0.40625 0.296875,0.703125 0.6875,0.703125 0.46875,0 0.78125,-0.34375 0.78125,-0.84375 0,-0.625 -0.4375,-1.03125 -1.109375,-1.03125 -0.78125,0 -1.46875,0.640625 -1.875,1.75 z m 0,0"
           id="path32018" /></g><g
         id="glyph-3-11"><path
           d="m 5.6875,-4.0625 c 0,-0.78125 -0.140625,-1.1875 -0.5,-1.484375 C 4.765625,-5.890625 4.15625,-6.0625 3.34375,-6.0625 c -1.421875,0 -2.453125,0.671875 -2.453125,1.59375 0,0.46875 0.296875,0.765625 0.734375,0.765625 0.40625,0 0.671875,-0.265625 0.671875,-0.640625 0,-0.171875 -0.0625,-0.34375 -0.1875,-0.515625 -0.0625,-0.09375 -0.078125,-0.109375 -0.078125,-0.171875 0,-0.265625 0.5,-0.484375 1.109375,-0.484375 0.390625,0 0.84375,0.125 1.046875,0.3125 0.234375,0.203125 0.328125,0.5 0.328125,1.078125 v 0.484375 c -1.3125,0.234375 -1.734375,0.328125 -2.34375,0.5625 -1.09375,0.40625 -1.625,0.984375 -1.625,1.796875 0,0.90625 0.71875,1.46875 1.828125,1.46875 0.875,0 1.65625,-0.34375 2.203125,-1 0.1875,0.65625 0.515625,0.90625 1.109375,0.90625 0.5625,0 1.15625,-0.375 1.15625,-0.734375 0,-0.09375 -0.0625,-0.15625 -0.125,-0.15625 -0.0625,0 -0.109375,0.015625 -0.1875,0.046875 -0.1875,0.078125 -0.265625,0.09375 -0.359375,0.09375 -0.359375,0 -0.484375,-0.21875 -0.484375,-0.875 z m -1.171875,1.546875 c 0,0.75 -0.046875,0.921875 -0.265625,1.25 -0.3125,0.46875 -0.875,0.78125 -1.421875,0.78125 -0.59375,0 -1,-0.40625 -1,-0.96875 0,-0.53125 0.265625,-0.921875 0.8125,-1.171875 0.390625,-0.1875 0.890625,-0.3125 1.875,-0.46875 z m 0,0"
           id="path32021" /></g><g
         id="glyph-3-12"><path
           d="m 3.71875,-1.53125 -1.4375,-3.3125 C 2.234375,-4.953125 2.21875,-5.046875 2.21875,-5.125 c 0,-0.21875 0.15625,-0.296875 0.671875,-0.296875 h 0.1875 V -5.875 H 0.09375 v 0.453125 h 0.109375 c 0.484375,0 0.65625,0.125 0.828125,0.546875 l 2.171875,5.0625 h 0.4375 l 1.78125,-4.421875 C 5.78125,-5.09375 6.078125,-5.375 6.59375,-5.421875 h 0.0625 V -5.875 H 4.125 v 0.453125 h 0.1875 c 0.4375,0 0.671875,0.15625 0.671875,0.453125 0,0.140625 -0.03125,0.328125 -0.109375,0.515625 z m 0,0"
           id="path32024" /></g><g
         id="glyph-3-13"><path
           d="M 2.265625,-9.28125 0.09375,-9.140625 v 0.546875 h 0.453125 c 0.46875,0 0.53125,0.078125 0.53125,0.625 v 4.890625 c 0,1.75 -0.078125,2.71875 -0.21875,3.25 h 0.46875 l 0.625,-0.984375 c 0.515625,0.6875 1.109375,1 1.890625,1 1.5625,0 2.703125,-1.328125 2.703125,-3.15625 0,-1.8125 -1.0625,-3.09375 -2.5625,-3.09375 -0.765625,0 -1.234375,0.265625 -1.71875,0.984375 z M 3.75,-5.421875 c 0.953125,0 1.46875,0.921875 1.46875,2.578125 0,1.59375 -0.515625,2.484375 -1.421875,2.484375 -1,0 -1.59375,-0.90625 -1.59375,-2.46875 0,-1.6875 0.546875,-2.59375 1.546875,-2.59375 z m 0,0"
           id="path32027" /></g><g
         id="glyph-3-14"><path
           d="m 3.78125,-1.59375 -1.390625,-3.25 c -0.046875,-0.125 -0.078125,-0.1875 -0.078125,-0.25 0,-0.234375 0.15625,-0.328125 0.578125,-0.328125 H 3.15625 V -5.875 h -3 v 0.453125 h 0.140625 c 0.4375,0.015625 0.59375,0.140625 0.859375,0.6875 L 3.21875,-0.09375 3,0.359375 C 2.546875,1.3125 1.953125,1.984375 1.546875,1.984375 1.4375,1.984375 1.34375,1.921875 1.34375,1.84375 1.34375,1.828125 1.359375,1.78125 1.375,1.734375 1.40625,1.625 1.4375,1.515625 1.4375,1.40625 c 0,-0.328125 -0.265625,-0.5625 -0.640625,-0.5625 -0.4375,0 -0.765625,0.328125 -0.765625,0.78125 0,0.5625 0.484375,0.96875 1.15625,0.96875 0.65625,0 1.234375,-0.328125 1.734375,-1 C 3.3125,1.078125 3.5625,0.546875 4.125,-0.828125 l 1.421875,-3.5625 C 5.84375,-5.125 6.125,-5.40625 6.609375,-5.421875 H 6.6875 V -5.875 H 4.171875 v 0.453125 H 4.375 c 0.46875,0 0.671875,0.140625 0.671875,0.46875 0,0.140625 -0.03125,0.296875 -0.125,0.5 z m 0,0"
           id="path32030" /></g><g
         id="glyph-3-15"><path
           d="m 8.140625,-3.453125 h -0.5625 C 7.171875,-1.1875 6.59375,-0.625 4.640625,-0.59375 H 4.125 C 3.359375,-0.609375 3.171875,-0.75 3.21875,-1.203125 v -6.34375 c 0,-0.625 0,-0.671875 0.0625,-0.78125 C 3.390625,-8.453125 3.625,-8.484375 4.34375,-8.5 H 4.578125 V -9.09375 H 0.4375 V -8.5 h 0.234375 c 0.71875,0.015625 0.953125,0.046875 1.046875,0.171875 0.078125,0.109375 0.078125,0.140625 0.078125,0.78125 v 6 c 0,0.640625 0,0.671875 -0.078125,0.78125 -0.09375,0.125 -0.328125,0.171875 -1.046875,0.171875 H 0.4375 V 0 H 7.875 Z m 0,0"
           id="path32033" /></g><g
         id="glyph-3-16"><path
           d="m 2.5625,-9.28125 -2.328125,0.140625 v 0.546875 h 0.625 c 0.46875,0 0.53125,0.078125 0.53125,0.625 v 7.015625 C 1.375,-0.765625 1.359375,-0.6875 1.3125,-0.625 1.21875,-0.515625 0.984375,-0.46875 0.4375,-0.453125 H 0.359375 V 0 h 3.25 V -0.453125 H 3.53125 C 2.6875,-0.484375 2.5625,-0.546875 2.5625,-1 Z m 0,0"
           id="path32036" /></g><g
         id="glyph-3-17"><path
           d="m 3.125,-4.046875 h 1.421875 c 1.140625,0 1.71875,-0.078125 2.234375,-0.328125 0.890625,-0.421875 1.390625,-1.234375 1.390625,-2.21875 0,-0.96875 -0.4375,-1.6875 -1.265625,-2.109375 -0.5,-0.25 -1.28125,-0.390625 -2.140625,-0.390625 H 0.359375 V -8.5 h 0.21875 c 0.71875,0.015625 0.953125,0.046875 1.0625,0.171875 0.078125,0.109375 0.078125,0.140625 0.078125,0.78125 v 6 c 0,0.640625 0,0.671875 -0.078125,0.78125 -0.109375,0.125 -0.34375,0.171875 -1.0625,0.171875 H 0.359375 V 0 h 4.21875 V -0.59375 H 4.25 c -0.71875,0 -0.953125,-0.046875 -1.046875,-0.171875 C 3.125,-0.875 3.125,-0.90625 3.125,-1.546875 Z m 0,-0.59375 v -3.21875 C 3.125,-8.4375 3.1875,-8.5 3.890625,-8.5 h 0.8125 C 6,-8.5 6.625,-7.890625 6.625,-6.546875 c 0,1.296875 -0.640625,1.90625 -1.984375,1.90625 z m 0,0"
           id="path32039" /></g><g
         id="glyph-3-18"><path
           d="m 3.171875,-6.0625 c -1.546875,0 -2.75,1.375 -2.75,3.140625 0,1.71875 1.21875,3.109375 2.71875,3.109375 1.515625,0 2.734375,-1.390625 2.734375,-3.125 0,-1.71875 -1.21875,-3.125 -2.703125,-3.125 z m 0,0.546875 c 0.890625,0 1.375,0.921875 1.375,2.578125 0,1.671875 -0.484375,2.578125 -1.40625,2.578125 -0.90625,0 -1.390625,-0.90625 -1.390625,-2.5625 0,-1.71875 0.484375,-2.59375 1.421875,-2.59375 z m 0,0"
           id="path32042" /></g><g
         id="glyph-3-19"><path
           d="M 4.78125,0.09375 6.984375,0 V -0.546875 H 6.75 C 6.03125,-0.578125 5.96875,-0.65625 5.96875,-1.453125 V -9.28125 L 3.5,-9.140625 v 0.546875 h 0.75 c 0.46875,0 0.53125,0.078125 0.53125,0.625 V -5.125 c -0.46875,-0.640625 -1,-0.9375 -1.734375,-0.9375 -1.421875,0 -2.5,1.375 -2.5,3.1875 0,1.796875 1.046875,3.0625 2.5,3.0625 0.796875,0 1.328125,-0.34375 1.734375,-1.09375 z M 3.296875,-5.375 c 0.515625,0 1.015625,0.375 1.234375,0.953125 0.171875,0.375 0.234375,0.890625 0.234375,1.515625 0,1.46875 -0.578125,2.421875 -1.484375,2.421875 -0.890625,0 -1.421875,-0.84375 -1.421875,-2.234375 0,-0.75 0.078125,-1.328125 0.25,-1.734375 C 2.3125,-5.03125 2.78125,-5.375 3.296875,-5.375 Z m 0,0"
           id="path32045" /></g><g
         id="glyph-3-20"><path
           d="M 6.359375,-2.71875 H 5.8125 l -0.125,0.640625 C 5.515625,-1.265625 5.421875,-1.1875 4.640625,-1.1875 H 1.8125 C 2.6875,-2.09375 2.96875,-2.359375 3.78125,-2.984375 4.921875,-3.859375 5.421875,-4.3125 5.703125,-4.6875 6.109375,-5.234375 6.3125,-5.796875 6.3125,-6.40625 c 0,-1.4375 -1.1875,-2.453125 -2.84375,-2.453125 -1.59375,0 -2.8125,1.015625 -2.8125,2.359375 0,0.796875 0.40625,1.34375 1,1.34375 0.453125,0 0.78125,-0.328125 0.78125,-0.78125 C 2.4375,-6.25 2.25,-6.53125 1.984375,-6.65625 1.53125,-6.84375 1.5,-6.859375 1.5,-7.03125 1.5,-7.21875 1.625,-7.5 1.796875,-7.71875 2.109375,-8.109375 2.625,-8.328125 3.21875,-8.328125 c 1.046875,0 1.671875,0.640625 1.671875,1.703125 0,0.9375 -0.4375,1.78125 -1.484375,2.890625 -0.9375,0.96875 -1.515625,1.59375 -1.734375,1.828125 C 1.21875,-1.375 1,-1.078125 0.4375,-0.359375 V 0 H 6.125 Z m 0,0"
           id="path32048" /></g><g
         id="glyph-3-21"><path
           d="m 1.71875,-1.390625 c -0.4375,0 -0.78125,0.34375 -0.78125,0.78125 0,0.4375 0.34375,0.78125 0.78125,0.78125 0.4375,0 0.78125,-0.34375 0.78125,-0.78125 0,-0.4375 -0.34375,-0.78125 -0.78125,-0.78125 z m 0,0"
           id="path32051" /></g><g
         id="glyph-3-22"><path
           d="m 4.640625,-8.859375 -4.28125,5.953125 v 0.703125 h 3.53125 v 0.65625 c 0,0.640625 0,0.671875 -0.078125,0.78125 C 3.71875,-0.625 3.46875,-0.59375 2.765625,-0.59375 H 2.625 V 0 H 6.296875 V -0.59375 H 6.25 c -0.71875,0 -0.953125,-0.03125 -1.0625,-0.171875 -0.078125,-0.109375 -0.078125,-0.125 -0.078125,-0.78125 v -0.65625 h 1.53125 V -2.90625 h -1.53125 v -3.4375 c 0,-1.578125 0,-1.609375 0.0625,-2.515625 z m -0.75,5.953125 H 1.125 l 2.765625,-3.8125 z m 0,0"
           id="path32054" /></g><g
         id="glyph-3-23"><path
           d="M 4.0625,-8.859375 C 3.625,-8.34375 2.46875,-7.953125 1.3125,-7.9375 v 0.546875 h 1.109375 c 0.71875,0.015625 0.796875,0.09375 0.78125,0.796875 v 5.046875 c 0,0.640625 0,0.671875 -0.078125,0.78125 -0.109375,0.125 -0.34375,0.171875 -1.046875,0.171875 h -0.8125 V 0 H 6.25 V -0.59375 H 5.546875 c -0.703125,0 -0.9375,-0.046875 -1.03125,-0.171875 -0.09375,-0.109375 -0.09375,-0.125 -0.09375,-0.78125 V -6.75 c 0,-0.703125 0.03125,-1.296875 0.09375,-2.109375 z m 0,0"
           id="path32057" /></g><g
         id="glyph-3-24"><path
           d="m 0,-3.359375 v 0.765625 h 12.59375 v -0.765625 z m 0,0"
           id="path32060" /></g><g
         id="glyph-3-25"><path
           d="M 6.890625,-1.625 5.65625,-4.859375 C 5.609375,-4.953125 5.609375,-5.03125 5.609375,-5.125 c 0,-0.234375 0.109375,-0.296875 0.53125,-0.296875 H 6.4375 V -5.875 H 3.609375 v 0.453125 h 0.21875 c 0.40625,0.015625 0.5625,0.125 0.671875,0.46875 L 4.59375,-4.625 3.484375,-1.6875 2.265625,-4.84375 C 2.234375,-4.9375 2.21875,-5.046875 2.21875,-5.125 c 0,-0.21875 0.140625,-0.296875 0.515625,-0.296875 h 0.21875 V -5.875 H 0.1875 v 0.453125 h 0.234375 c 0.34375,0.015625 0.515625,0.171875 0.65625,0.625 l 1.875,4.984375 H 3.40625 l 1.5,-3.984375 L 6.4375,0.1875 H 6.828125 L 8.59375,-4.453125 c 0.265625,-0.75 0.46875,-0.953125 0.921875,-0.96875 h 0.09375 V -5.875 h -2.375 v 0.453125 H 7.4375 c 0.453125,0 0.625,0.125 0.625,0.46875 0,0.125 -0.046875,0.296875 -0.109375,0.453125 z m 0,0"
           id="path32063" /></g><g
         id="glyph-3-26"><path
           d="M 2.53125,-5.875 0.359375,-5.734375 V -5.1875 H 0.8125 c 0.46875,0.015625 0.53125,0.09375 0.53125,0.625 V 1.59375 C 1.328125,1.78125 1.328125,1.84375 1.265625,1.921875 1.1875,2.03125 0.9375,2.078125 0.40625,2.09375 H 0.359375 V 2.546875 H 3.625 V 2.09375 H 3.484375 C 2.640625,2.0625 2.53125,2 2.53125,1.546875 v -2.375 C 2.953125,-0.09375 3.40625,0.1875 4.1875,0.1875 c 0.78125,0 1.40625,-0.328125 1.859375,-0.9375 0.4375,-0.609375 0.6875,-1.390625 0.6875,-2.203125 0,-0.828125 -0.25,-1.59375 -0.71875,-2.203125 -0.46875,-0.59375 -1.046875,-0.90625 -1.75,-0.90625 -0.78125,0 -1.296875,0.328125 -1.734375,1.09375 z m 1.515625,0.5 c 0.859375,0 1.375,0.859375 1.375,2.34375 0,1.625 -0.515625,2.546875 -1.421875,2.546875 -0.90625,0 -1.484375,-0.9375 -1.484375,-2.390625 0,-1.578125 0.5625,-2.5 1.53125,-2.5 z m 0,0"
           id="path32066" /></g></g></defs><g
     inkscape:label="Layer 1"
     inkscape:groupmode="layer"
     id="layer1"
     transform="translate(-29.270404,-38.905193)"><g
       id="g33769"><path
         fill="none"
         stroke-width="0.18471"
         stroke-linecap="round"
         stroke-linejoin="miter"
         stroke="#000000"
         stroke-opacity="1"
         stroke-miterlimit="10"
         d="M 29.362759,54.359359 H 173.33882"
         id="path32073" /><path
         fill="none"
         stroke-width="0.18471"
         stroke-linecap="round"
         stroke-linejoin="miter"
         stroke="#000000"
         stroke-opacity="1"
         stroke-miterlimit="10"
         d="M 29.362759,52.33778 H 173.33882"
         id="path32075" /><path
         fill="none"
         stroke-width="0.18471"
         stroke-linecap="round"
         stroke-linejoin="miter"
         stroke="#000000"
         stroke-opacity="1"
         stroke-miterlimit="10"
         d="M 29.362759,50.317573 H 173.33882"
         id="path32077" /><path
         fill="none"
         stroke-width="0.18471"
         stroke-linecap="round"
         stroke-linejoin="miter"
         stroke="#000000"
         stroke-opacity="1"
         stroke-miterlimit="10"
         d="M 29.362759,48.295991 H 173.33882"
         id="path32079" /><path
         fill="none"
         stroke-width="0.18471"
         stroke-linecap="round"
         stroke-linejoin="miter"
         stroke="#000000"
         stroke-opacity="1"
         stroke-miterlimit="10"
         d="M 29.362759,46.275787 H 173.33882"
         id="path32081" /><path
         fill="none"
         stroke-width="0.923752"
         stroke-linecap="butt"
         stroke-linejoin="miter"
         stroke="#000000"
         stroke-opacity="1"
         stroke-miterlimit="10"
         d="M 172.96951,54.359359 V 46.275787"
         id="path32083" /><path
         fill="none"
         stroke-width="0.18471"
         stroke-linecap="butt"
         stroke-linejoin="miter"
         stroke="#000000"
         stroke-opacity="1"
         stroke-miterlimit="10"
         d="M 171.67553,54.359359 V 46.275787"
         id="path32085" /><g
         fill="#000000"
         fill-opacity="1"
         id="g32089"
         transform="matrix(0.35277778,0,0,0.35277778,19.270007,31.88219)"><use
           xlink:href="#glyph-0-1"
           x="73.601601"
           y="63.713001"
           id="use32087" /></g><g
         fill="#000000"
         fill-opacity="1"
         id="g32093"
         transform="matrix(0.35277778,0,0,0.35277778,19.270007,31.88219)"><use
           xlink:href="#glyph-0-2"
           x="32.929298"
           y="57.984482"
           id="use32091" /></g><g
         fill="#000000"
         fill-opacity="1"
         id="g32097"
         transform="matrix(0.35277778,0,0,0.35277778,19.270007,31.88219)"><use
           xlink:href="#glyph-0-3"
           x="52.978901"
           y="40.798981"
           id="use32095" /></g><g
         fill="#000000"
         fill-opacity="1"
         id="g32101"
         transform="matrix(0.35277778,0,0,0.35277778,19.270007,31.88219)"><use
           xlink:href="#glyph-1-1"
           x="66.880501"
           y="83.763077"
           id="use32099" /></g><g
         fill="#000000"
         fill-opacity="1"
         id="g32105"
         transform="matrix(0.35277778,0,0,0.35277778,19.270007,31.88219)"><use
           xlink:href="#glyph-1-2"
           x="76.575027"
           y="83.763077"
           id="use32103" /></g><g
         fill="#000000"
         fill-opacity="1"
         id="g32109"
         transform="matrix(0.35277778,0,0,0.35277778,19.270007,31.88219)"><use
           xlink:href="#glyph-1-3"
           x="81.507057"
           y="83.763077"
           id="use32107" /></g><path
         fill="none"
         stroke-width="0.140654"
         stroke-linecap="butt"
         stroke-linejoin="round"
         stroke="#000000"
         stroke-opacity="1"
         stroke-miterlimit="10"
         d="m 47.703071,53.900473 h 0.09922 v -6.544304 h -0.09922 z m 0,0"
         id="path32111" /><path
         fill-rule="nonzero"
         fill="#000000"
         fill-opacity="1"
         d="m 47.703069,53.900484 h 0.09922 v -6.544303 h -0.09922 z m 0,0"
         id="path32113"
         style="stroke-width:0.352778" /><g
         fill="#000000"
         fill-opacity="1"
         id="g32117"
         transform="matrix(0.35277778,0,0,0.35277778,19.270007,31.88219)"><use
           xlink:href="#glyph-0-4"
           x="81.078499"
           y="43.862999"
           id="use32115" /></g><g
         fill="#000000"
         fill-opacity="1"
         id="g32121"
         transform="matrix(0.35277778,0,0,0.35277778,19.270007,31.88219)"><use
           xlink:href="#glyph-0-1"
           x="93.648804"
           y="60.8489"
           id="use32119" /></g><g
         fill="#000000"
         fill-opacity="1"
         id="g32125"
         transform="matrix(0.35277778,0,0,0.35277778,19.270007,31.88219)"><use
           xlink:href="#glyph-1-4"
           x="88.372627"
           y="83.763397"
           id="use32123" /></g><g
         fill="#000000"
         fill-opacity="1"
         id="g32129"
         transform="matrix(0.35277778,0,0,0.35277778,19.270007,31.88219)"><use
           xlink:href="#glyph-1-5"
           x="94.155441"
           y="83.763397"
           id="use32127" /></g><g
         fill="#000000"
         fill-opacity="1"
         id="g32133"
         transform="matrix(0.35277778,0,0,0.35277778,19.270007,31.88219)"><use
           xlink:href="#glyph-1-6"
           x="100.61832"
           y="83.763397"
           id="use32131" /></g><path
         fill="none"
         stroke-width="0.140654"
         stroke-linecap="butt"
         stroke-linejoin="round"
         stroke="#000000"
         stroke-opacity="1"
         stroke-miterlimit="10"
         d="m 54.775163,52.890371 h 0.09922 v -6.544303 h -0.09922 z m 0,0"
         id="path32135" /><path
         fill-rule="nonzero"
         fill="#000000"
         fill-opacity="1"
         d="m 54.775161,52.890382 h 0.09922 v -6.544303 h -0.09922 z m 0,0"
         id="path32137"
         style="stroke-width:0.352778" /><g
         fill="#000000"
         fill-opacity="1"
         id="g32141"
         transform="matrix(0.35277778,0,0,0.35277778,19.270007,31.88219)"><use
           xlink:href="#glyph-0-4"
           x="101.125"
           y="40.999001"
           id="use32139" /></g><g
         fill="#000000"
         fill-opacity="1"
         id="g32145"
         transform="matrix(0.35277778,0,0,0.35277778,19.270007,31.88219)"><use
           xlink:href="#glyph-0-1"
           x="111.618"
           y="63.713799"
           id="use32143" /></g><g
         fill="#000000"
         fill-opacity="1"
         id="g32149"
         transform="matrix(0.35277778,0,0,0.35277778,19.270007,31.88219)"><use
           xlink:href="#glyph-1-7"
           x="108.97894"
           y="83.763802"
           id="use32147" /></g><g
         fill="#000000"
         fill-opacity="1"
         id="g32153"
         transform="matrix(0.35277778,0,0,0.35277778,19.270007,31.88219)"><use
           xlink:href="#glyph-1-8"
           x="114.76175"
           y="83.763802"
           id="use32151" /></g><path
         fill="none"
         stroke-width="0.140654"
         stroke-linecap="butt"
         stroke-linejoin="round"
         stroke="#000000"
         stroke-opacity="1"
         stroke-miterlimit="10"
         d="m 61.114139,53.900473 h 0.09922 v -6.544304 h -0.09922 z m 0,0"
         id="path32155" /><path
         fill-rule="nonzero"
         fill="#000000"
         fill-opacity="1"
         d="m 61.114137,53.900484 h 0.09922 v -6.544303 h -0.09922 z m 0,0"
         id="path32157"
         style="stroke-width:0.352778" /><g
         fill="#000000"
         fill-opacity="1"
         id="g32161"
         transform="matrix(0.35277778,0,0,0.35277778,19.270007,31.88219)"><use
           xlink:href="#glyph-0-4"
           x="119.095"
           y="43.862999"
           id="use32159" /></g><g
         fill="#000000"
         fill-opacity="1"
         id="g32165"
         transform="matrix(0.35277778,0,0,0.35277778,19.270007,31.88219)"><use
           xlink:href="#glyph-0-1"
           x="135.2403"
           y="66.577499"
           id="use32163" /></g><g
         fill="#000000"
         fill-opacity="1"
         id="g32169"
         transform="matrix(0.35277778,0,0,0.35277778,19.270007,31.88219)"><use
           xlink:href="#glyph-1-9"
           x="128.7739"
           y="83.763397"
           id="use32167" /></g><g
         fill="#000000"
         fill-opacity="1"
         id="g32173"
         transform="matrix(0.35277778,0,0,0.35277778,19.270007,31.88219)"><use
           xlink:href="#glyph-1-8"
           x="136.42702"
           y="83.763397"
           id="use32171" /></g><g
         fill="#000000"
         fill-opacity="1"
         id="g32177"
         transform="matrix(0.35277778,0,0,0.35277778,19.270007,31.88219)"><use
           xlink:href="#glyph-1-10"
           x="143.40044"
           y="83.763397"
           id="use32175" /></g><path
         fill="none"
         stroke-width="0.140654"
         stroke-linecap="butt"
         stroke-linejoin="round"
         stroke="#000000"
         stroke-opacity="1"
         stroke-miterlimit="10"
         d="m 69.447139,54.910574 h 0.100594 v -6.544303 h -0.100594 z m 0,0"
         id="path32179" /><path
         fill-rule="nonzero"
         fill="#000000"
         fill-opacity="1"
         d="m 69.447132,54.911964 h 0.100598 v -6.545681 h -0.100598 z m 0,0"
         id="path32181"
         style="stroke-width:0.352778" /><g
         fill="#000000"
         fill-opacity="1"
         id="g32185"
         transform="matrix(0.35277778,0,0,0.35277778,19.270007,31.88219)"><use
           xlink:href="#glyph-0-4"
           x="142.718"
           y="46.727001"
           id="use32183" /></g><g
         fill="#000000"
         fill-opacity="1"
         id="g32189"
         transform="matrix(0.35277778,0,0,0.35277778,19.270007,31.88219)"><use
           xlink:href="#glyph-0-3"
           x="126.9348"
           y="66.5774"
           id="use32187" /></g><g
         fill="#000000"
         fill-opacity="1"
         id="g32193"
         transform="matrix(0.35277778,0,0,0.35277778,19.270007,31.88219)"><use
           xlink:href="#glyph-0-1"
           x="158.7383"
           y="63.713341"
           id="use32191" /></g><g
         fill="#000000"
         fill-opacity="1"
         id="g32197"
         transform="matrix(0.35277778,0,0,0.35277778,19.270007,31.88219)"><use
           xlink:href="#glyph-1-11"
           x="151.76213"
           y="83.763344"
           id="use32195" /></g><g
         fill="#000000"
         fill-opacity="1"
         id="g32201"
         transform="matrix(0.35277778,0,0,0.35277778,19.270007,31.88219)"><use
           xlink:href="#glyph-1-12"
           x="157.37503"
           y="83.763344"
           id="use32199" /></g><g
         fill="#000000"
         fill-opacity="1"
         id="g32205"
         transform="matrix(0.35277778,0,0,0.35277778,19.270007,31.88219)"><use
           xlink:href="#glyph-1-13"
           x="161.28674"
           y="83.763344"
           id="use32203" /></g><g
         fill="#000000"
         fill-opacity="1"
         id="g32209"
         transform="matrix(0.35277778,0,0,0.35277778,19.270007,31.88219)"><use
           xlink:href="#glyph-1-4"
           x="167.5797"
           y="83.763344"
           id="use32207" /></g><path
         fill="none"
         stroke-width="0.140654"
         stroke-linecap="butt"
         stroke-linejoin="round"
         stroke="#000000"
         stroke-opacity="1"
         stroke-miterlimit="10"
         d="m 77.737417,53.900473 h 0.09922 v -6.544304 h -0.09922 z m 0,0"
         id="path32211" /><path
         fill-rule="nonzero"
         fill="#000000"
         fill-opacity="1"
         d="m 77.73741,53.900484 h 0.09922 v -6.544303 h -0.09922 z m 0,0"
         id="path32213"
         style="stroke-width:0.352778" /><g
         fill="#000000"
         fill-opacity="1"
         id="g32217"
         transform="matrix(0.35277778,0,0,0.35277778,19.270007,31.88219)"><use
           xlink:href="#glyph-0-4"
           x="166.215"
           y="43.862999"
           id="use32215" /></g><g
         fill="#000000"
         fill-opacity="1"
         id="g32221"
         transform="matrix(0.35277778,0,0,0.35277778,19.270007,31.88219)"><use
           xlink:href="#glyph-0-1"
           x="180.99631"
           y="60.8489"
           id="use32219" /></g><g
         fill="#000000"
         fill-opacity="1"
         id="g32225"
         transform="matrix(0.35277778,0,0,0.35277778,19.270007,31.88219)"><use
           xlink:href="#glyph-1-14"
           x="173.76466"
           y="83.763397"
           id="use32223" /></g><g
         fill="#000000"
         fill-opacity="1"
         id="g32229"
         transform="matrix(0.35277778,0,0,0.35277778,19.270007,31.88219)"><use
           xlink:href="#glyph-1-12"
           x="180.90802"
           y="83.763397"
           id="use32227" /></g><g
         fill="#000000"
         fill-opacity="1"
         id="g32233"
         transform="matrix(0.35277778,0,0,0.35277778,19.270007,31.88219)"><use
           xlink:href="#glyph-1-8"
           x="184.82013"
           y="83.763397"
           id="use32231" /></g><g
         fill="#000000"
         fill-opacity="1"
         id="g32237"
         transform="matrix(0.35277778,0,0,0.35277778,19.270007,31.88219)"><use
           xlink:href="#glyph-1-15"
           x="191.79317"
           y="83.763397"
           id="use32235" /></g><path
         fill="none"
         stroke-width="0.140654"
         stroke-linecap="butt"
         stroke-linejoin="round"
         stroke="#000000"
         stroke-opacity="1"
         stroke-miterlimit="10"
         d="m 85.589478,52.890371 h 0.09922 v -6.544303 h -0.09922 z m 0,0"
         id="path32239" /><path
         fill-rule="nonzero"
         fill="#000000"
         fill-opacity="1"
         d="m 85.589474,52.890382 h 0.09922 v -6.544303 h -0.09922 z m 0,0"
         id="path32241"
         style="stroke-width:0.352778" /><g
         fill="#000000"
         fill-opacity="1"
         id="g32245"
         transform="matrix(0.35277778,0,0,0.35277778,19.270007,31.88219)"><use
           xlink:href="#glyph-0-4"
           x="188.47301"
           y="40.999001"
           id="use32243" /></g><path
         fill="none"
         stroke-width="0.147814"
         stroke-linecap="round"
         stroke-linejoin="round"
         stroke="#000000"
         stroke-opacity="1"
         stroke-miterlimit="10"
         d="m 113.7552,54.746589 c 1.39871,1.660536 4.31326,2.000913 6.05648,0.706935 -1.71841,1.073492 -4.63159,0.733115 -6.05648,-0.706935 z m 0,0"
         id="path32247" /><path
         fill-rule="nonzero"
         fill="#000000"
         fill-opacity="1"
         d="m 113.7552,54.7466 c 1.3987,1.660536 4.31325,2.000911 6.05647,0.706933 -1.71841,1.073492 -4.63158,0.733117 -6.05647,-0.706933"
         id="path32249"
         style="stroke-width:0.352778" /><g
         fill="#000000"
         fill-opacity="1"
         id="g32253"
         transform="matrix(0.35277778,0,0,0.35277778,19.270007,31.88219)"><use
           xlink:href="#glyph-0-1"
           x="200.752"
           y="57.985001"
           id="use32251" /></g><g
         fill="#000000"
         fill-opacity="1"
         id="g32257"
         transform="matrix(0.35277778,0,0,0.35277778,19.270007,31.88219)"><use
           xlink:href="#glyph-1-4"
           x="198.28247"
           y="83.763496"
           id="use32255" /></g><g
         fill="#000000"
         fill-opacity="1"
         id="g32261"
         transform="matrix(0.35277778,0,0,0.35277778,19.270007,31.88219)"><use
           xlink:href="#glyph-1-8"
           x="203.72505"
           y="83.763496"
           id="use32259" /></g><path
         fill="none"
         stroke-width="0.140654"
         stroke-linecap="butt"
         stroke-linejoin="round"
         stroke="#000000"
         stroke-opacity="1"
         stroke-miterlimit="10"
         d="m 92.558216,51.880269 h 0.100598 v -6.545682 h -0.100598 z m 0,0"
         id="path32263" /><path
         fill-rule="nonzero"
         fill="#000000"
         fill-opacity="1"
         d="m 92.558211,51.88028 h 0.09922 v -6.545681 h -0.09922 z m 0,0"
         id="path32265"
         style="stroke-width:0.352778" /><g
         fill="#000000"
         fill-opacity="1"
         id="g32269"
         transform="matrix(0.35277778,0,0,0.35277778,19.270007,31.88219)"><use
           xlink:href="#glyph-0-1"
           x="215.696"
           y="60.848999"
           id="use32267" /></g><g
         fill="#000000"
         fill-opacity="1"
         id="g32273"
         transform="matrix(0.35277778,0,0,0.35277778,19.270007,31.88219)"><use
           xlink:href="#glyph-1-9"
           x="211.271"
           y="83.763496"
           id="use32271" /></g><g
         fill="#000000"
         fill-opacity="1"
         id="g32277"
         transform="matrix(0.35277778,0,0,0.35277778,19.270007,31.88219)"><use
           xlink:href="#glyph-1-5"
           x="218.41435"
           y="83.763496"
           id="use32275" /></g><g
         fill="#000000"
         fill-opacity="1"
         id="g32281"
         transform="matrix(0.35277778,0,0,0.35277778,19.270007,31.88219)"><use
           xlink:href="#glyph-1-16"
           x="224.19714"
           y="83.763496"
           id="use32279" /></g><path
         fill="none"
         stroke-width="0.140654"
         stroke-linecap="butt"
         stroke-linejoin="round"
         stroke="#000000"
         stroke-opacity="1"
         stroke-miterlimit="10"
         d="m 97.830593,52.890371 h 0.09922 v -6.544303 h -0.09922 z m 0,0"
         id="path32283" /><path
         fill-rule="nonzero"
         fill="#000000"
         fill-opacity="1"
         d="m 97.830588,52.890382 h 0.09922 v -6.544303 h -0.09922 z m 0,0"
         id="path32285"
         style="stroke-width:0.352778" /><g
         fill="#000000"
         fill-opacity="1"
         id="g32289"
         transform="matrix(0.35277778,0,0,0.35277778,19.270007,31.88219)"><use
           xlink:href="#glyph-0-5"
           x="227.22301"
           y="40.799"
           id="use32287" /></g><g
         fill="#000000"
         fill-opacity="1"
         id="g32293"
         transform="matrix(0.35277778,0,0,0.35277778,19.270007,31.88219)"><use
           xlink:href="#glyph-0-1"
           x="235.77573"
           y="52.256001"
           id="use32291" /></g><g
         fill="#000000"
         fill-opacity="1"
         id="g32297"
         transform="matrix(0.35277778,0,0,0.35277778,19.270007,31.88219)"><use
           xlink:href="#glyph-1-17"
           x="232.8812"
           y="83.763"
           id="use32295" /></g><g
         fill="#000000"
         fill-opacity="1"
         id="g32301"
         transform="matrix(0.35277778,0,0,0.35277778,19.270007,31.88219)"><use
           xlink:href="#glyph-1-13"
           x="239.85464"
           y="83.763"
           id="use32299" /></g><path
         fill="none"
         stroke-width="0.140654"
         stroke-linecap="butt"
         stroke-linejoin="round"
         stroke="#000000"
         stroke-opacity="1"
         stroke-miterlimit="10"
         d="m 102.5173,56.983144 h 0.0992 v -6.20806 h -0.0992 z m 0,0"
         id="path32303" /><path
         fill-rule="nonzero"
         fill="#000000"
         fill-opacity="1"
         d="m 102.51729,56.983156 h 0.0992 v -6.208062 h -0.0992 z m 0,0"
         id="path32305"
         style="stroke-width:0.352778" /><g
         fill="#000000"
         fill-opacity="1"
         id="g32309"
         transform="matrix(0.35277778,0,0,0.35277778,19.270007,31.88219)"><use
           xlink:href="#glyph-0-1"
           x="250.032"
           y="55.119999"
           id="use32307" /></g><g
         fill="#000000"
         fill-opacity="1"
         id="g32313"
         transform="matrix(0.35277778,0,0,0.35277778,19.270007,31.88219)"><use
           xlink:href="#glyph-1-7"
           x="246.96716"
           y="83.763"
           id="use32311" /></g><g
         fill="#000000"
         fill-opacity="1"
         id="g32317"
         transform="matrix(0.35277778,0,0,0.35277778,19.270007,31.88219)"><use
           xlink:href="#glyph-1-18"
           x="252.91951"
           y="83.763"
           id="use32315" /></g><path
         fill="none"
         stroke-width="0.140654"
         stroke-linecap="butt"
         stroke-linejoin="round"
         stroke="#000000"
         stroke-opacity="1"
         stroke-miterlimit="10"
         d="m 109.94355,50.868789 h 0.0992 v -6.544304 h -0.0992 z m 0,0"
         id="path32319" /><path
         fill-rule="nonzero"
         fill="#000000"
         fill-opacity="1"
         d="m 109.94354,50.870178 h 0.0992 v -6.545681 h -0.0992 z m 0,0"
         id="path32321"
         style="stroke-width:0.352778" /><g
         fill="#000000"
         fill-opacity="1"
         id="g32325"
         transform="matrix(0.35277778,0,0,0.35277778,19.270007,31.88219)"><use
           xlink:href="#glyph-0-1"
           x="264.38199"
           y="57.985001"
           id="use32323" /></g><g
         fill="#000000"
         fill-opacity="1"
         id="g32329"
         transform="matrix(0.35277778,0,0,0.35277778,19.270007,31.88219)"><use
           xlink:href="#glyph-1-19"
           x="264.38199"
           y="83.763496"
           id="use32327" /></g><g
         fill="#000000"
         fill-opacity="1"
         id="g32333"
         transform="matrix(0.35277778,0,0,0.35277778,19.270007,31.88219)"><use
           xlink:href="#glyph-1-20"
           x="273.39645"
           y="83.763496"
           id="use32331" /></g><g
         fill="#000000"
         fill-opacity="1"
         id="g32337"
         transform="matrix(0.35277778,0,0,0.35277778,19.270007,31.88219)"><use
           xlink:href="#glyph-1-4"
           x="281.04996"
           y="83.763496"
           id="use32335" /></g><g
         fill="#000000"
         fill-opacity="1"
         id="g32341"
         transform="matrix(0.35277778,0,0,0.35277778,19.270007,31.88219)"><use
           xlink:href="#glyph-1-5"
           x="286.83276"
           y="83.763496"
           id="use32339" /></g><path
         fill="none"
         stroke-width="0.140654"
         stroke-linecap="butt"
         stroke-linejoin="round"
         stroke="#000000"
         stroke-opacity="1"
         stroke-miterlimit="10"
         d="m 115.00646,51.880269 h 0.0992 v -6.545682 h -0.0992 z m 0,0"
         id="path32343" /><path
         fill-rule="nonzero"
         fill="#000000"
         fill-opacity="1"
         d="m 115.00646,51.88028 h 0.0992 v -6.545681 h -0.0992 z m 0,0"
         id="path32345"
         style="stroke-width:0.352778" /><g
         fill="#000000"
         fill-opacity="1"
         id="g32349"
         transform="matrix(0.35277778,0,0,0.35277778,19.270007,31.88219)"><use
           xlink:href="#glyph-0-4"
           x="271.85901"
           y="38.134998"
           id="use32347" /></g><g
         fill="#000000"
         fill-opacity="1"
         id="g32353"
         transform="matrix(0.35277778,0,0,0.35277778,19.270007,31.88219)"><use
           xlink:href="#glyph-0-1"
           x="281.55042"
           y="60.849499"
           id="use32351" /></g><path
         fill="none"
         stroke-width="0.140654"
         stroke-linecap="butt"
         stroke-linejoin="round"
         stroke="#000000"
         stroke-opacity="1"
         stroke-miterlimit="10"
         d="m 121.06294,52.890371 h 0.0992 v -6.544303 h -0.0992 z m 0,0"
         id="path32355" /><path
         fill-rule="nonzero"
         fill="#000000"
         fill-opacity="1"
         d="m 121.06293,52.890382 h 0.0992 v -6.544303 h -0.0992 z m 0,0"
         id="path32357"
         style="stroke-width:0.352778" /><g
         fill="#000000"
         fill-opacity="1"
         id="g32361"
         transform="matrix(0.35277778,0,0,0.35277778,19.270007,31.88219)"><use
           xlink:href="#glyph-0-4"
           x="289.02802"
           y="40.999001"
           id="use32359" /></g><g
         fill="#000000"
         fill-opacity="1"
         id="g32365"
         transform="matrix(0.35277778,0,0,0.35277778,19.270007,31.88219)"><use
           xlink:href="#glyph-0-1"
           x="298.71942"
           y="63.713799"
           id="use32363" /></g><g
         fill="#000000"
         fill-opacity="1"
         id="g32369"
         transform="matrix(0.35277778,0,0,0.35277778,19.270007,31.88219)"><use
           xlink:href="#glyph-1-10"
           x="294.03934"
           y="83.763802"
           id="use32367" /></g><g
         fill="#000000"
         fill-opacity="1"
         id="g32373"
         transform="matrix(0.35277778,0,0,0.35277778,19.270007,31.88219)"><use
           xlink:href="#glyph-1-2"
           x="299.65222"
           y="83.763802"
           id="use32371" /></g><g
         fill="#000000"
         fill-opacity="1"
         id="g32377"
         transform="matrix(0.35277778,0,0,0.35277778,19.270007,31.88219)"><use
           xlink:href="#glyph-1-13"
           x="304.58423"
           y="83.763802"
           id="use32375" /></g><path
         fill="none"
         stroke-width="0.140654"
         stroke-linecap="butt"
         stroke-linejoin="round"
         stroke="#000000"
         stroke-opacity="1"
         stroke-miterlimit="10"
         d="m 127.11942,53.900473 h 0.0992 v -6.544304 h -0.0992 z m 0,0"
         id="path32379" /><path
         fill-rule="nonzero"
         fill="#000000"
         fill-opacity="1"
         d="m 127.11941,53.900484 h 0.0992 v -6.544303 h -0.0992 z m 0,0"
         id="path32381"
         style="stroke-width:0.352778" /><g
         fill="#000000"
         fill-opacity="1"
         id="g32385"
         transform="matrix(0.35277778,0,0,0.35277778,19.270007,31.88219)"><use
           xlink:href="#glyph-0-5"
           x="311.62299"
           y="40.799"
           id="use32383" /></g><g
         fill="#000000"
         fill-opacity="1"
         id="g32389"
         transform="matrix(0.35277778,0,0,0.35277778,19.270007,31.88219)"><use
           xlink:href="#glyph-0-1"
           x="320.17651"
           y="52.256001"
           id="use32387" /></g><g
         fill="#000000"
         fill-opacity="1"
         id="g32393"
         transform="matrix(0.35277778,0,0,0.35277778,19.270007,31.88219)"><use
           xlink:href="#glyph-1-7"
           x="313.45465"
           y="83.763"
           id="use32391" /></g><g
         fill="#000000"
         fill-opacity="1"
         id="g32397"
         transform="matrix(0.35277778,0,0,0.35277778,19.270007,31.88219)"><use
           xlink:href="#glyph-1-21"
           x="319.40698"
           y="83.763"
           id="use32395" /></g><g
         fill="#000000"
         fill-opacity="1"
         id="g32401"
         transform="matrix(0.35277778,0,0,0.35277778,19.270007,31.88219)"><use
           xlink:href="#glyph-1-12"
           x="330.46207"
           y="83.763"
           id="use32399" /></g><path
         fill="none"
         stroke-width="0.140654"
         stroke-linecap="butt"
         stroke-linejoin="round"
         stroke="#000000"
         stroke-opacity="1"
         stroke-miterlimit="10"
         d="m 132.29119,57.067207 h 0.0992 v -6.292123 h -0.0992 z m 0,0"
         id="path32403" /><path
         fill-rule="nonzero"
         fill="#000000"
         fill-opacity="1"
         d="m 132.29119,57.067216 h 0.0992 v -6.292122 h -0.0992 z m 0,0"
         id="path32405"
         style="stroke-width:0.352778" /><g
         fill="#000000"
         fill-opacity="1"
         id="g32409"
         transform="matrix(0.35277778,0,0,0.35277778,19.270007,31.88219)"><use
           xlink:href="#glyph-0-6"
           x="320.85699"
           y="71.390999"
           id="use32407" /></g><g
         fill="#000000"
         fill-opacity="1"
         id="g32413"
         transform="matrix(0.35277778,0,0,0.35277778,19.270007,31.88219)"><use
           xlink:href="#glyph-0-1"
           x="338.6925"
           y="52.256599"
           id="use32411" /></g><g
         fill="#000000"
         fill-opacity="1"
         id="g32417"
         transform="matrix(0.35277778,0,0,0.35277778,19.270007,31.88219)"><use
           xlink:href="#glyph-1-15"
           x="334.9472"
           y="83.763603"
           id="use32415" /></g><g
         fill="#000000"
         fill-opacity="1"
         id="g32421"
         transform="matrix(0.35277778,0,0,0.35277778,19.270007,31.88219)"><use
           xlink:href="#glyph-1-18"
           x="338.85931"
           y="83.763603"
           id="use32419" /></g><g
         fill="#000000"
         fill-opacity="1"
         id="g32425"
         transform="matrix(0.35277778,0,0,0.35277778,19.270007,31.88219)"><use
           xlink:href="#glyph-1-22"
           x="346.17294"
           y="83.763603"
           id="use32423" /></g><path
         fill="none"
         stroke-width="0.140654"
         stroke-linecap="butt"
         stroke-linejoin="round"
         stroke="#000000"
         stroke-opacity="1"
         stroke-miterlimit="10"
         d="m 138.8231,57.067207 h 0.10059 v -6.292123 h -0.10059 z m 0,0"
         id="path32427" /><path
         fill-rule="nonzero"
         fill="#000000"
         fill-opacity="1"
         d="m 138.82309,57.067216 h 0.0992 v -6.292122 h -0.0992 z m 0,0"
         id="path32429"
         style="stroke-width:0.352778" /><g
         fill="#000000"
         fill-opacity="1"
         id="g32433"
         transform="matrix(0.35277778,0,0,0.35277778,19.270007,31.88219)"><use
           xlink:href="#glyph-0-6"
           x="339.37299"
           y="71.390999"
           id="use32431" /></g><g
         fill="#000000"
         fill-opacity="1"
         id="g32437"
         transform="matrix(0.35277778,0,0,0.35277778,19.270007,31.88219)"><use
           xlink:href="#glyph-0-1"
           x="356.7468"
           y="55.120701"
           id="use32435" /></g><g
         fill="#000000"
         fill-opacity="1"
         id="g32441"
         transform="matrix(0.35277778,0,0,0.35277778,19.270007,31.88219)"><use
           xlink:href="#glyph-1-10"
           x="352.49173"
           y="83.763702"
           id="use32439" /></g><g
         fill="#000000"
         fill-opacity="1"
         id="g32445"
         transform="matrix(0.35277778,0,0,0.35277778,19.270007,31.88219)"><use
           xlink:href="#glyph-1-12"
           x="358.27454"
           y="83.763702"
           id="use32443" /></g><g
         fill="#000000"
         fill-opacity="1"
         id="g32449"
         transform="matrix(0.35277778,0,0,0.35277778,19.270007,31.88219)"><use
           xlink:href="#glyph-1-23"
           x="362.18665"
           y="83.763702"
           id="use32447" /></g><path
         fill="none"
         stroke-width="0.140654"
         stroke-linecap="butt"
         stroke-linejoin="round"
         stroke="#000000"
         stroke-opacity="1"
         stroke-miterlimit="10"
         d="m 147.59018,50.868789 h 0.10059 v -6.544304 h -0.10059 z m 0,0"
         id="path32451" /><path
         fill-rule="nonzero"
         fill="#000000"
         fill-opacity="1"
         d="m 147.59017,50.870178 h 0.0992 v -6.545681 h -0.0992 z m 0,0"
         id="path32453"
         style="stroke-width:0.352778" /><g
         fill="#000000"
         fill-opacity="1"
         id="g32457"
         transform="matrix(0.35277778,0,0,0.35277778,19.270007,31.88219)"><use
           xlink:href="#glyph-0-4"
           x="364.224"
           y="35.27"
           id="use32455" /></g><g
         fill="#000000"
         fill-opacity="1"
         id="g32461"
         transform="matrix(0.35277778,0,0,0.35277778,19.270007,31.88219)"><use
           xlink:href="#glyph-0-1"
           x="378.2037"
           y="57.984798"
           id="use32459" /></g><g
         fill="#000000"
         fill-opacity="1"
         id="g32465"
         transform="matrix(0.35277778,0,0,0.35277778,19.270007,31.88219)"><use
           xlink:href="#glyph-1-9"
           x="371.05682"
           y="83.763298"
           id="use32463" /></g><g
         fill="#000000"
         fill-opacity="1"
         id="g32469"
         transform="matrix(0.35277778,0,0,0.35277778,19.270007,31.88219)"><use
           xlink:href="#glyph-1-8"
           x="378.71033"
           y="83.763298"
           id="use32467" /></g><g
         fill="#000000"
         fill-opacity="1"
         id="g32473"
         transform="matrix(0.35277778,0,0,0.35277778,19.270007,31.88219)"><use
           xlink:href="#glyph-1-24"
           x="385.68338"
           y="83.763298"
           id="use32471" /></g><path
         fill="none"
         stroke-width="0.140654"
         stroke-linecap="butt"
         stroke-linejoin="round"
         stroke="#000000"
         stroke-opacity="1"
         stroke-miterlimit="10"
         d="m 155.15974,51.880269 h 0.0992 v -6.545682 h -0.0992 z m 0,0"
         id="path32475" /><path
         fill-rule="nonzero"
         fill="#000000"
         fill-opacity="1"
         d="m 155.15973,51.88028 h 0.0992 v -6.545681 h -0.0992 z m 0,0"
         id="path32477"
         style="stroke-width:0.352778" /><g
         fill="#000000"
         fill-opacity="1"
         id="g32481"
         transform="matrix(0.35277778,0,0,0.35277778,19.270007,31.88219)"><use
           xlink:href="#glyph-0-4"
           x="385.67999"
           y="38.134998"
           id="use32479" /></g><g
         fill="#000000"
         fill-opacity="1"
         id="g32485"
         transform="matrix(0.35277778,0,0,0.35277778,19.270007,31.88219)"><use
           xlink:href="#glyph-0-1"
           x="398.97919"
           y="60.849499"
           id="use32483" /></g><g
         fill="#000000"
         fill-opacity="1"
         id="g32489"
         transform="matrix(0.35277778,0,0,0.35277778,19.270007,31.88219)"><use
           xlink:href="#glyph-2-1"
           x="398.97919"
           y="28.892099"
           id="use32487" /></g><g
         fill="#000000"
         fill-opacity="1"
         id="g32493"
         transform="matrix(0.35277778,0,0,0.35277778,19.270007,31.88219)"><use
           xlink:href="#glyph-2-2"
           x="404.5921"
           y="28.892099"
           id="use32491" /></g><g
         fill="#000000"
         fill-opacity="1"
         id="g32497"
         transform="matrix(0.35277778,0,0,0.35277778,19.270007,31.88219)"><use
           xlink:href="#glyph-2-3"
           x="408.84366"
           y="28.892099"
           id="use32495" /></g><g
         fill="#000000"
         fill-opacity="1"
         id="g32501"
         transform="matrix(0.35277778,0,0,0.35277778,19.270007,31.88219)"><use
           xlink:href="#glyph-2-4"
           x="413.26556"
           y="28.892099"
           id="use32499" /></g><g
         fill="#000000"
         fill-opacity="1"
         id="g32505"
         transform="matrix(0.35277778,0,0,0.35277778,19.270007,31.88219)"><use
           xlink:href="#glyph-1-9"
           x="395.40421"
           y="83.764"
           id="use32503" /></g><g
         fill="#000000"
         fill-opacity="1"
         id="g32509"
         transform="matrix(0.35277778,0,0,0.35277778,19.270007,31.88219)"><use
           xlink:href="#glyph-1-8"
           x="403.05731"
           y="83.764"
           id="use32507" /></g><path
         fill="none"
         stroke-width="0.140654"
         stroke-linecap="butt"
         stroke-linejoin="round"
         stroke="#000000"
         stroke-opacity="1"
         stroke-miterlimit="10"
         d="m 162.48952,52.890371 h 0.0992 v -6.544303 h -0.0992 z m 0,0"
         id="path32511" /><path
         fill-rule="nonzero"
         fill="#000000"
         fill-opacity="1"
         d="m 162.48952,52.890382 h 0.0992 v -6.544303 h -0.0992 z m 0,0"
         id="path32513"
         style="stroke-width:0.352778" /><g
         fill="#000000"
         fill-opacity="1"
         id="g32517"
         transform="matrix(0.35277778,0,0,0.35277778,19.270007,31.88219)"><use
           xlink:href="#glyph-0-1"
           x="416.04999"
           y="63.713001"
           id="use32515" /></g><g
         fill="#000000"
         fill-opacity="1"
         id="g32521"
         transform="matrix(0.35277778,0,0,0.35277778,19.270007,31.88219)"><use
           xlink:href="#glyph-1-21"
           x="410.60431"
           y="83.763"
           id="use32519" /></g><g
         fill="#000000"
         fill-opacity="1"
         id="g32525"
         transform="matrix(0.35277778,0,0,0.35277778,19.270007,31.88219)"><use
           xlink:href="#glyph-1-12"
           x="421.65939"
           y="83.763"
           id="use32523" /></g><g
         fill="#000000"
         fill-opacity="1"
         id="g32529"
         transform="matrix(0.35277778,0,0,0.35277778,19.270007,31.88219)"><use
           xlink:href="#glyph-1-25"
           x="425.57111"
           y="83.763"
           id="use32527" /></g><path
         fill="none"
         stroke-width="0.140654"
         stroke-linecap="butt"
         stroke-linejoin="round"
         stroke="#000000"
         stroke-opacity="1"
         stroke-miterlimit="10"
         d="m 168.51155,53.900473 h 0.0992 v -6.544304 h -0.0992 z m 0,0"
         id="path32531" /><path
         fill-rule="nonzero"
         fill="#000000"
         fill-opacity="1"
         d="m 168.51154,53.900484 h 0.0992 v -6.544303 h -0.0992 z m 0,0"
         id="path32533"
         style="stroke-width:0.352778" /></g><g
       fill="#000000"
       fill-opacity="1"
       id="g32557"
       transform="matrix(0.35277778,0,0,0.35277778,19.270007,31.88219)"><use
         xlink:href="#glyph-3-6"
         x="171.60944"
         y="822.27551"
         id="use32555" /></g><g
       fill="#000000"
       fill-opacity="1"
       id="g32597"
       transform="matrix(0.35277778,0,0,0.35277778,19.270007,31.88219)"><use
         xlink:href="#glyph-3-6"
         x="233.6884"
         y="822.27551"
         id="use32595" /></g><g
       fill="#000000"
       fill-opacity="1"
       id="g32609"
       transform="matrix(0.35277778,0,0,0.35277778,19.270007,31.88219)"><use
         xlink:href="#glyph-3-6"
         x="250.69621"
         y="822.27551"
         id="use32607" /></g><g
       fill="#000000"
       fill-opacity="1"
       id="g32645"
       transform="matrix(0.35277778,0,0,0.35277778,19.270007,31.88219)"><use
         xlink:href="#glyph-3-6"
         x="306.31229"
         y="822.27551"
         id="use32643" /></g></g></svg>
